EESchema Schematic File Version 4
EELAYER 30 0
EELAYER END
$Descr A4 11693 8268
encoding utf-8
Sheet 1 4
Title ""
Date ""
Rev ""
Comp ""
Comment1 ""
Comment2 ""
Comment3 ""
Comment4 ""
$EndDescr
$Comp
L MCU_RaspberryPi_and_Boards:Raspberry_Pi_Pico U1
U 1 1 613DF0BA
P 2700 2550
F 0 "U1" H 2700 3765 50  0000 C CNN
F 1 "Raspberry_Pi_Pico" H 2700 3674 50  0000 C CNN
F 2 "MCU_RaspberryPi_and_Boards:RPi_Pico_SMD_TH" V 2700 2550 50  0001 C CNN
F 3 "" H 2700 2550 50  0001 C CNN
	1    2700 2550
	1    0    0    -1  
$EndComp
Connection ~ 3150 4000
Wire Wire Line
	3500 4000 3500 3900
Wire Wire Line
	3150 4000 3500 4000
$Comp
L power:PWR_FLAG #FLG0101
U 1 1 613B6DC7
P 3500 3900
F 0 "#FLG0101" H 3500 3975 50  0001 C CNN
F 1 "PWR_FLAG" H 3500 4073 50  0000 C CNN
F 2 "" H 3500 3900 50  0001 C CNN
F 3 "~" H 3500 3900 50  0001 C CNN
	1    3500 3900
	1    0    0    -1  
$EndComp
NoConn ~ 2000 2750
NoConn ~ 2000 2650
Text Label 3500 3250 0    50   ~ 0
ENABLE
Text Label 3500 3150 0    50   ~ 0
SELECT
Text Label 3500 3050 0    50   ~ 0
START
Wire Wire Line
	3400 3050 3500 3050
Wire Wire Line
	3400 3150 3500 3150
Text Label 3500 2150 0    50   ~ 0
RIGT_BUT
Text Label 3500 2050 0    50   ~ 0
RIGHT_TRIG
Wire Wire Line
	3400 3250 3500 3250
Wire Wire Line
	3400 2450 3500 2450
Wire Wire Line
	3400 2550 3500 2550
Wire Wire Line
	3400 2050 3500 2050
Wire Wire Line
	3400 2950 3500 2950
Wire Wire Line
	3400 3350 3500 3350
Text Label 1900 3350 2    50   ~ 0
BUTTON_UP
Text Label 3500 2250 0    50   ~ 0
BUTTON_Y
Text Label 3500 2450 0    50   ~ 0
BUTTON_B
Text Label 3500 2550 0    50   ~ 0
BUTTON_A
Wire Wire Line
	2000 3250 1900 3250
Wire Wire Line
	2000 3450 1900 3450
Wire Wire Line
	3400 2250 3500 2250
Wire Wire Line
	3400 2350 3500 2350
Wire Wire Line
	2000 3150 1900 3150
Wire Wire Line
	2000 3050 1900 3050
Text Label 3500 1650 0    50   ~ 0
ADC2_IN
Text Label 3500 1750 0    50   ~ 0
ADC1_IN
Text Label 3500 1850 0    50   ~ 0
ADC0_IN
Wire Wire Line
	2750 4000 2750 4100
Wire Wire Line
	2750 4000 2800 4000
Connection ~ 2750 4000
Wire Wire Line
	3000 4000 3150 4000
Connection ~ 3000 4000
Wire Wire Line
	3000 3850 3000 4000
Wire Wire Line
	2900 4000 3000 4000
Connection ~ 2900 4000
Wire Wire Line
	2900 3850 2900 4000
Wire Wire Line
	2800 4000 2900 4000
Connection ~ 2800 4000
Wire Wire Line
	2800 3850 2800 4000
Wire Wire Line
	2700 4000 2750 4000
Connection ~ 2700 4000
Wire Wire Line
	2700 3850 2700 4000
Wire Wire Line
	2600 4000 2700 4000
Connection ~ 2600 4000
Wire Wire Line
	2600 3850 2600 4000
Wire Wire Line
	2500 4000 2600 4000
Connection ~ 2500 4000
Wire Wire Line
	2500 3850 2500 4000
Wire Wire Line
	2400 4000 2500 4000
Connection ~ 2400 4000
Wire Wire Line
	2400 3850 2400 4000
Wire Wire Line
	3150 4000 3150 3850
Wire Wire Line
	2300 4000 2400 4000
Wire Wire Line
	2300 3850 2300 4000
Text Label 3500 2850 0    50   ~ 0
RIGTHJ_ENABLE
Wire Wire Line
	3400 2150 3500 2150
Wire Wire Line
	3400 1650 3500 1650
Wire Wire Line
	3400 2850 3500 2850
Wire Wire Line
	3400 1850 3500 1850
Wire Wire Line
	3400 1750 3500 1750
$Comp
L power:GND #PWR08
U 1 1 611898D8
P 2750 4100
F 0 "#PWR08" H 2750 3850 50  0001 C CNN
F 1 "GND" H 2755 3927 50  0000 C CNN
F 2 "" H 2750 4100 50  0001 C CNN
F 3 "" H 2750 4100 50  0001 C CNN
	1    2750 4100
	1    0    0    -1  
$EndComp
$Comp
L power:GND #PWR03
U 1 1 6136833E
P 2650 7450
F 0 "#PWR03" H 2650 7200 50  0001 C CNN
F 1 "GND" H 2655 7277 50  0000 C CNN
F 2 "" H 2650 7450 50  0001 C CNN
F 3 "" H 2650 7450 50  0001 C CNN
	1    2650 7450
	1    0    0    -1  
$EndComp
Wire Wire Line
	2650 7400 2650 7450
$Comp
L Device:R R4
U 1 1 61360220
P 2650 7250
F 0 "R4" H 2720 7296 50  0000 L CNN
F 1 "100k" H 2720 7205 50  0000 L CNN
F 2 "Resistor_SMD:R_0805_2012Metric" V 2580 7250 50  0001 C CNN
F 3 "~" H 2650 7250 50  0001 C CNN
	1    2650 7250
	1    0    0    -1  
$EndComp
Text Label 5200 7050 0    50   ~ 0
ENABLE
Text Label 3500 7050 0    50   ~ 0
SELECT
Text Label 2050 7050 0    50   ~ 0
START
Wire Wire Line
	5150 7050 5200 7050
$Comp
L Device:R R9
U 1 1 6134A5E3
P 5000 7050
F 0 "R9" V 4793 7050 50  0000 C CNN
F 1 "330R" V 4884 7050 50  0000 C CNN
F 2 "Resistor_SMD:R_0805_2012Metric" V 4930 7050 50  0001 C CNN
F 3 "~" H 5000 7050 50  0001 C CNN
	1    5000 7050
	0    -1   1    0   
$EndComp
Connection ~ 4750 7050
Wire Wire Line
	4850 7050 4750 7050
Wire Wire Line
	4750 6200 4550 6200
Wire Wire Line
	4550 6200 4350 6200
Connection ~ 4550 6200
Wire Wire Line
	4750 7050 4350 7050
Wire Wire Line
	4550 6100 4550 6200
Wire Wire Line
	4750 6950 4750 7050
Wire Wire Line
	4750 6550 4750 6650
Wire Wire Line
	4350 6200 4350 6400
Wire Wire Line
	4750 6250 4750 6200
$Comp
L Device:R R8
U 1 1 6134A5D2
P 4750 6400
F 0 "R8" H 4820 6446 50  0000 L CNN
F 1 "1k" H 4820 6355 50  0000 L CNN
F 2 "Resistor_SMD:R_0805_2012Metric" V 4680 6400 50  0001 C CNN
F 3 "~" H 4750 6400 50  0001 C CNN
	1    4750 6400
	-1   0    0    -1  
$EndComp
$Comp
L Device:C C3
U 1 1 6134A5CC
P 4750 6800
F 0 "C3" H 4865 6846 50  0000 L CNN
F 1 "220n" H 4865 6755 50  0000 L CNN
F 2 "Capacitor_SMD:C_0805_2012Metric" H 4788 6650 50  0001 C CNN
F 3 "~" H 4750 6800 50  0001 C CNN
	1    4750 6800
	-1   0    0    -1  
$EndComp
Wire Wire Line
	4350 7050 4350 7100
Connection ~ 4350 7050
$Comp
L power:+3V3 #PWR07
U 1 1 6134A5C4
P 4550 6100
F 0 "#PWR07" H 4550 5950 50  0001 C CNN
F 1 "+3V3" H 4565 6273 50  0000 C CNN
F 2 "" H 4550 6100 50  0001 C CNN
F 3 "" H 4550 6100 50  0001 C CNN
	1    4550 6100
	-1   0    0    -1  
$EndComp
$Comp
L power:GND #PWR05
U 1 1 6134A5BE
P 4350 7450
F 0 "#PWR05" H 4350 7200 50  0001 C CNN
F 1 "GND" H 4355 7277 50  0000 C CNN
F 2 "" H 4350 7450 50  0001 C CNN
F 3 "" H 4350 7450 50  0001 C CNN
	1    4350 7450
	-1   0    0    -1  
$EndComp
Wire Wire Line
	4350 7400 4350 7450
$Comp
L Device:R R7
U 1 1 6134A5B7
P 4350 7250
F 0 "R7" H 4280 7296 50  0000 R CNN
F 1 "100k" H 4280 7205 50  0000 R CNN
F 2 "Resistor_SMD:R_0805_2012Metric" V 4280 7250 50  0001 C CNN
F 3 "~" H 4350 7250 50  0001 C CNN
	1    4350 7250
	-1   0    0    -1  
$EndComp
Wire Wire Line
	4350 6800 4350 7050
$Comp
L Switch:SW_Push SW3
U 1 1 6134A5B0
P 4350 6600
F 0 "SW3" H 4350 6885 50  0000 C CNN
F 1 "DTSM-63R-V-B" H 4350 6794 50  0000 C CNN
F 2 "Button_Switch_SMD:SW_Push_1P1T_NO_6x6mm_H9.5mm" H 4350 6800 50  0001 C CNN
F 3 "~" H 4350 6800 50  0001 C CNN
	1    4350 6600
	0    -1   1    0   
$EndComp
Wire Wire Line
	3450 7050 3500 7050
$Comp
L Device:R R6
U 1 1 61347831
P 3300 7050
F 0 "R6" V 3093 7050 50  0000 C CNN
F 1 "330R" V 3184 7050 50  0000 C CNN
F 2 "Resistor_SMD:R_0805_2012Metric" V 3230 7050 50  0001 C CNN
F 3 "~" H 3300 7050 50  0001 C CNN
	1    3300 7050
	0    -1   1    0   
$EndComp
Connection ~ 3050 7050
Wire Wire Line
	3150 7050 3050 7050
Wire Wire Line
	3050 6200 2850 6200
Wire Wire Line
	2850 6200 2650 6200
Connection ~ 2850 6200
Wire Wire Line
	3050 7050 2650 7050
Wire Wire Line
	2850 6100 2850 6200
Wire Wire Line
	3050 6950 3050 7050
Wire Wire Line
	3050 6550 3050 6650
Wire Wire Line
	2650 6200 2650 6400
Wire Wire Line
	3050 6250 3050 6200
$Comp
L Device:R R5
U 1 1 61347820
P 3050 6400
F 0 "R5" H 3120 6446 50  0000 L CNN
F 1 "1k" H 3120 6355 50  0000 L CNN
F 2 "Resistor_SMD:R_0805_2012Metric" V 2980 6400 50  0001 C CNN
F 3 "~" H 3050 6400 50  0001 C CNN
	1    3050 6400
	-1   0    0    -1  
$EndComp
$Comp
L Device:C C2
U 1 1 6134781A
P 3050 6800
F 0 "C2" H 3165 6846 50  0000 L CNN
F 1 "220n" H 3165 6755 50  0000 L CNN
F 2 "Capacitor_SMD:C_0805_2012Metric" H 3088 6650 50  0001 C CNN
F 3 "~" H 3050 6800 50  0001 C CNN
	1    3050 6800
	-1   0    0    -1  
$EndComp
Wire Wire Line
	2650 7050 2650 7100
Connection ~ 2650 7050
$Comp
L power:+3V3 #PWR04
U 1 1 61347812
P 2850 6100
F 0 "#PWR04" H 2850 5950 50  0001 C CNN
F 1 "+3V3" H 2865 6273 50  0000 C CNN
F 2 "" H 2850 6100 50  0001 C CNN
F 3 "" H 2850 6100 50  0001 C CNN
	1    2850 6100
	-1   0    0    -1  
$EndComp
Wire Wire Line
	2650 6800 2650 7050
$Comp
L Switch:SW_Push SW2
U 1 1 613477FE
P 2650 6600
F 0 "SW2" H 2650 6885 50  0000 C CNN
F 1 "DTSM-63R-V-B" H 2650 6794 50  0000 C CNN
F 2 "Button_Switch_SMD:SW_Push_1P1T_NO_6x6mm_H9.5mm" H 2650 6800 50  0001 C CNN
F 3 "~" H 2650 6800 50  0001 C CNN
	1    2650 6600
	0    -1   1    0   
$EndComp
Wire Wire Line
	2000 7050 2050 7050
$Comp
L Device:R R3
U 1 1 61268E84
P 1850 7050
F 0 "R3" V 1643 7050 50  0000 C CNN
F 1 "330R" V 1734 7050 50  0000 C CNN
F 2 "Resistor_SMD:R_0805_2012Metric" V 1780 7050 50  0001 C CNN
F 3 "~" H 1850 7050 50  0001 C CNN
	1    1850 7050
	0    -1   1    0   
$EndComp
Connection ~ 1600 7050
Wire Wire Line
	1700 7050 1600 7050
Wire Wire Line
	1600 6200 1400 6200
Wire Wire Line
	1400 6200 1200 6200
Connection ~ 1400 6200
Wire Wire Line
	1600 7050 1200 7050
Wire Wire Line
	1400 6100 1400 6200
Wire Wire Line
	1600 6950 1600 7050
Wire Wire Line
	1600 6550 1600 6650
Wire Wire Line
	1200 6200 1200 6400
Wire Wire Line
	1600 6250 1600 6200
$Comp
L Device:R R2
U 1 1 61249DB4
P 1600 6400
F 0 "R2" H 1670 6446 50  0000 L CNN
F 1 "1k" H 1670 6355 50  0000 L CNN
F 2 "Resistor_SMD:R_0805_2012Metric" V 1530 6400 50  0001 C CNN
F 3 "~" H 1600 6400 50  0001 C CNN
	1    1600 6400
	-1   0    0    -1  
$EndComp
$Comp
L Device:C C1
U 1 1 61248BB8
P 1600 6800
F 0 "C1" H 1715 6846 50  0000 L CNN
F 1 "220n" H 1715 6755 50  0000 L CNN
F 2 "Capacitor_SMD:C_0805_2012Metric" H 1638 6650 50  0001 C CNN
F 3 "~" H 1600 6800 50  0001 C CNN
	1    1600 6800
	-1   0    0    -1  
$EndComp
Wire Wire Line
	1200 7050 1200 7100
Connection ~ 1200 7050
$Comp
L power:+3V3 #PWR02
U 1 1 61246A40
P 1400 6100
F 0 "#PWR02" H 1400 5950 50  0001 C CNN
F 1 "+3V3" H 1415 6273 50  0000 C CNN
F 2 "" H 1400 6100 50  0001 C CNN
F 3 "" H 1400 6100 50  0001 C CNN
	1    1400 6100
	-1   0    0    -1  
$EndComp
$Comp
L power:GND #PWR01
U 1 1 61246430
P 1200 7450
F 0 "#PWR01" H 1200 7200 50  0001 C CNN
F 1 "GND" H 1205 7277 50  0000 C CNN
F 2 "" H 1200 7450 50  0001 C CNN
F 3 "" H 1200 7450 50  0001 C CNN
	1    1200 7450
	-1   0    0    -1  
$EndComp
Wire Wire Line
	1200 7400 1200 7450
$Comp
L Device:R R1
U 1 1 612447E0
P 1200 7250
F 0 "R1" H 1130 7296 50  0000 R CNN
F 1 "100k" H 1130 7205 50  0000 R CNN
F 2 "Resistor_SMD:R_0805_2012Metric" V 1130 7250 50  0001 C CNN
F 3 "~" H 1200 7250 50  0001 C CNN
	1    1200 7250
	-1   0    0    -1  
$EndComp
Wire Wire Line
	1200 6800 1200 7050
$Comp
L Switch:SW_Push SW1
U 1 1 61151ED8
P 1200 6600
F 0 "SW1" H 1200 6885 50  0000 C CNN
F 1 "DTSM-63R-V-B" H 1200 6794 50  0000 C CNN
F 2 "Button_Switch_SMD:SW_Push_1P1T_NO_6x6mm_H9.5mm" H 1200 6800 50  0001 C CNN
F 3 "~" H 1200 6800 50  0001 C CNN
	1    1200 6600
	0    -1   1    0   
$EndComp
Text Label 1750 5350 0    50   ~ 0
LEFT_BUT
Text Label 1750 5550 0    50   ~ 0
RIGT_BUT
Text Label 1750 5450 0    50   ~ 0
RIGHT_TRIG
Text Label 1750 5250 0    50   ~ 0
LEFT_TRIG
Wire Wire Line
	1650 5550 1750 5550
Wire Wire Line
	1650 5450 1750 5450
Wire Wire Line
	1650 5350 1750 5350
Wire Wire Line
	1650 5250 1750 5250
Text Label 5350 5500 0    50   ~ 0
BUTTON_Y
Text Label 5350 5400 0    50   ~ 0
BUTTON_X
Text Label 5350 5300 0    50   ~ 0
BUTTON_B
Text Label 5350 5200 0    50   ~ 0
BUTTON_A
Wire Wire Line
	5200 5500 5350 5500
Wire Wire Line
	5200 5400 5350 5400
Wire Wire Line
	5200 5300 5350 5300
Wire Wire Line
	5200 5200 5350 5200
$Sheet
S 4500 5100 700  500 
U 61282C66
F0 "SwitchABXY" 50
F1 "switch.sch" 50
F2 "OUT1" I R 5200 5200 50 
F3 "OUT3" I R 5200 5400 50 
F4 "OUT2" I R 5200 5300 50 
F5 "OUT4" I R 5200 5500 50 
$EndSheet
$Comp
L gamepad:74LVC1G53 U2
U 1 1 6134AF64
P 8950 5150
F 0 "U2" H 8950 5515 50  0000 C CNN
F 1 "74LVC1G53" H 8950 5424 50  0000 C CNN
F 2 "Package_SO:TSSOP-8_3x3mm_P0.65mm" H 8950 5150 50  0001 C CNN
F 3 "https://assets.nexperia.com/documents/data-sheet/74LVC1G53.pdf" H 8950 5150 50  0001 C CNN
	1    8950 5150
	-1   0    0    -1  
$EndComp
Wire Wire Line
	9550 5250 9350 5250
Wire Wire Line
	9000 5550 9000 5650
Text Notes 7050 3275 0    50   ~ 0
Different value here becouse of mux Ron while operation. 
Text Label 9550 5050 0    50   ~ 0
RIGTHJ_HOR
Text Label 9550 5150 0    50   ~ 0
RIGTHJ_VERT
Text Label 9550 5250 0    50   ~ 0
RIGTHJ_SELECT
Text Label 9550 5350 0    50   ~ 0
RIGTHJ_ENABLE
Wire Wire Line
	9350 5050 9550 5050
Wire Wire Line
	9350 5150 9550 5150
Wire Wire Line
	9350 5350 9550 5350
$Comp
L power:GND #PWR014
U 1 1 6118D321
P 8950 5700
F 0 "#PWR014" H 8950 5450 50  0001 C CNN
F 1 "GND" H 8955 5527 50  0000 C CNN
F 2 "" H 8950 5700 50  0001 C CNN
F 3 "" H 8950 5700 50  0001 C CNN
	1    8950 5700
	-1   0    0    -1  
$EndComp
Wire Wire Line
	8950 5650 8900 5650
Connection ~ 8950 5650
Wire Wire Line
	8950 5650 8950 5700
Wire Wire Line
	8900 5650 8900 5550
Wire Wire Line
	9000 5650 8950 5650
Text Label 8400 5250 2    50   ~ 0
MUX_OUT
$Comp
L power:+3V3 #PWR013
U 1 1 6118A020
P 8400 5000
F 0 "#PWR013" H 8400 4850 50  0001 C CNN
F 1 "+3V3" H 8415 5173 50  0000 C CNN
F 2 "" H 8400 5000 50  0001 C CNN
F 3 "" H 8400 5000 50  0001 C CNN
	1    8400 5000
	-1   0    0    -1  
$EndComp
Wire Wire Line
	8400 5100 8400 5000
Wire Wire Line
	8550 5100 8400 5100
Wire Wire Line
	8550 5250 8400 5250
Wire Wire Line
	10000 4000 9900 4000
Wire Wire Line
	10000 3900 9900 3900
Text Label 9900 4000 2    50   ~ 0
RIGTHJ_HOR
Text Label 9900 3900 2    50   ~ 0
RIGTHJ_VERT
Text Label 7550 3425 2    50   ~ 0
ADC0_IN
Text Label 7575 2225 2    50   ~ 0
ADC1_IN
Text Label 7575 1325 2    50   ~ 0
ADC2_IN
Wire Wire Line
	8050 3425 8150 3425
Wire Wire Line
	8075 2225 8175 2225
Wire Wire Line
	8075 1325 8125 1325
Connection ~ 7650 3425
Wire Wire Line
	7650 3425 7550 3425
Wire Wire Line
	7650 3425 7650 3525
Wire Wire Line
	7750 3425 7650 3425
$Comp
L Device:R R12
U 1 1 6143605B
P 7900 3425
F 0 "R12" V 7800 3425 50  0000 C CNN
F 1 "1R" V 8000 3425 50  0000 C CNN
F 2 "Resistor_SMD:R_0805_2012Metric" V 7830 3425 50  0001 C CNN
F 3 "~" H 7900 3425 50  0001 C CNN
	1    7900 3425
	0    1    1    0   
$EndComp
Connection ~ 7675 2225
Wire Wire Line
	7675 2225 7575 2225
$Comp
L power:GND #PWR011
U 1 1 613B477C
P 7675 2725
F 0 "#PWR011" H 7675 2475 50  0001 C CNN
F 1 "GND" H 7680 2552 50  0000 C CNN
F 2 "" H 7675 2725 50  0001 C CNN
F 3 "" H 7675 2725 50  0001 C CNN
	1    7675 2725
	1    0    0    -1  
$EndComp
Wire Wire Line
	7675 2625 7675 2725
Wire Wire Line
	7675 2225 7675 2325
Wire Wire Line
	7775 2225 7675 2225
$Comp
L Device:C C5
U 1 1 613B4773
P 7675 2475
F 0 "C5" H 7790 2521 50  0000 L CNN
F 1 "2.2n" H 7790 2430 50  0000 L CNN
F 2 "Capacitor_SMD:C_0805_2012Metric" H 7713 2325 50  0001 C CNN
F 3 "~" H 7675 2475 50  0001 C CNN
	1    7675 2475
	1    0    0    -1  
$EndComp
$Comp
L Device:R R11
U 1 1 613B476D
P 7925 2225
F 0 "R11" V 7825 2225 50  0000 C CNN
F 1 "10R" V 8025 2225 50  0000 C CNN
F 2 "Resistor_SMD:R_0805_2012Metric" V 7855 2225 50  0001 C CNN
F 3 "~" H 7925 2225 50  0001 C CNN
	1    7925 2225
	0    1    1    0   
$EndComp
Connection ~ 7675 1325
Wire Wire Line
	7675 1325 7575 1325
$Comp
L power:GND #PWR010
U 1 1 61398E94
P 7675 1825
F 0 "#PWR010" H 7675 1575 50  0001 C CNN
F 1 "GND" H 7680 1652 50  0000 C CNN
F 2 "" H 7675 1825 50  0001 C CNN
F 3 "" H 7675 1825 50  0001 C CNN
	1    7675 1825
	1    0    0    -1  
$EndComp
Wire Wire Line
	7675 1725 7675 1825
Wire Wire Line
	7675 1325 7675 1425
Wire Wire Line
	7775 1325 7675 1325
$Comp
L Device:C C4
U 1 1 613929E6
P 7675 1575
F 0 "C4" H 7790 1621 50  0000 L CNN
F 1 "2.2n" H 7790 1530 50  0000 L CNN
F 2 "Capacitor_SMD:C_0805_2012Metric" H 7713 1425 50  0001 C CNN
F 3 "~" H 7675 1575 50  0001 C CNN
	1    7675 1575
	1    0    0    -1  
$EndComp
$Comp
L Device:R R10
U 1 1 613921D3
P 7925 1325
F 0 "R10" V 7825 1325 50  0000 C CNN
F 1 "10R" V 8025 1325 50  0000 C CNN
F 2 "Resistor_SMD:R_0805_2012Metric" V 7855 1325 50  0001 C CNN
F 3 "~" H 7925 1325 50  0001 C CNN
	1    7925 1325
	0    1    1    0   
$EndComp
Text Label 8150 3425 0    50   ~ 0
MUX_OUT
Text Label 8125 1325 0    50   ~ 0
LEFTJ_VERT
Text Label 8175 2225 0    50   ~ 0
LEFTJ_HOR
NoConn ~ 2000 2300
NoConn ~ 2000 2200
NoConn ~ 2000 1900
NoConn ~ 2000 1800
NoConn ~ 2000 2500
$Comp
L gamepad:MCP1501T-33E_CHY U5
U 1 1 6124AD7A
P 5450 2600
F 0 "U5" H 5450 3165 50  0000 C CNN
F 1 "MCP1501T-33E_CHY" H 5450 3074 50  0000 C CNN
F 2 "Package_TO_SOT_SMD:SOT-23-6" H 5450 3200 50  0001 C CNN
F 3 "" H 5450 3200 50  0001 C CNN
	1    5450 2600
	1    0    0    -1  
$EndComp
Wire Wire Line
	5050 2400 4850 2400
Wire Wire Line
	4850 2300 5050 2300
Wire Wire Line
	4850 2300 4850 2200
Connection ~ 4850 2300
Wire Wire Line
	5850 2300 6100 2300
$Comp
L power:+3.3VADC #PWR050
U 1 1 6127AA68
P 6100 2200
F 0 "#PWR050" H 6250 2150 50  0001 C CNN
F 1 "+3.3VADC" H 6120 2343 50  0000 C CNN
F 2 "" H 6100 2200 50  0001 C CNN
F 3 "" H 6100 2200 50  0001 C CNN
	1    6100 2200
	1    0    0    -1  
$EndComp
Wire Wire Line
	6100 2200 6100 2300
$Comp
L power:+5V #PWR048
U 1 1 6129DDE0
P 4850 2200
F 0 "#PWR048" H 4850 2050 50  0001 C CNN
F 1 "+5V" H 4865 2373 50  0000 C CNN
F 2 "" H 4850 2200 50  0001 C CNN
F 3 "" H 4850 2200 50  0001 C CNN
	1    4850 2200
	1    0    0    -1  
$EndComp
Text Notes 950  5000 0    118  ~ 24
BUTTONS
Wire Notes Line
	475  4775 6975 4775
Wire Notes Line
	6975 7800 475  7800
Wire Notes Line
	475  7800 475  4775
$Sheet
S 2750 5150 700  500 
U 6132BE1F
F0 "switchLRUD" 50
F1 "switch.sch" 50
F2 "OUT1" I R 3450 5250 50 
F3 "OUT3" I R 3450 5450 50 
F4 "OUT2" I R 3450 5350 50 
F5 "OUT4" I R 3450 5550 50 
$EndSheet
Wire Wire Line
	3450 5250 3600 5250
Wire Wire Line
	3450 5350 3600 5350
Wire Wire Line
	3450 5450 3600 5450
Wire Wire Line
	3450 5550 3600 5550
Text Label 3600 5250 0    50   ~ 0
BUTTON_L
Text Label 3600 5350 0    50   ~ 0
BUTTON_R
Text Label 3600 5450 0    50   ~ 0
BUTTON_UP
Text Label 3600 5550 0    50   ~ 0
BUTTON_DOWN
Wire Notes Line
	6975 475  11225 475 
Wire Notes Line
	11225 475  11225 6550
Wire Notes Line
	11225 6550 6975 6550
Wire Notes Line
	6975 475  6975 7800
Text Notes 7200 800  0    118  ~ 24
JOYSTICK R&L
Text Notes 1375 825  0    118  ~ 24
Raspberry Pi Pico\n
Text Notes 4600 1800 0    50   ~ 0
To use exteran ADV VREF R7 need to be desoldered on Pico\nUsage of AGNED progably not required (just keep return path \nshort)\n
$Comp
L Device:C C21
U 1 1 614170E1
P 4850 2650
F 0 "C21" H 4965 2696 50  0000 L CNN
F 1 "2.2u" H 4965 2605 50  0000 L CNN
F 2 "Capacitor_SMD:C_1210_3225Metric" H 4888 2500 50  0001 C CNN
F 3 "~" H 4850 2650 50  0001 C CNN
	1    4850 2650
	1    0    0    -1  
$EndComp
$Comp
L Device:C C22
U 1 1 6142C85B
P 6100 2600
F 0 "C22" H 6215 2646 50  0000 L CNN
F 1 "1n" H 6215 2555 50  0000 L CNN
F 2 "Capacitor_SMD:C_0805_2012Metric" H 6138 2450 50  0001 C CNN
F 3 "~" H 6100 2600 50  0001 C CNN
	1    6100 2600
	1    0    0    -1  
$EndComp
Wire Wire Line
	4850 2300 4850 2400
Connection ~ 4850 2400
Wire Wire Line
	4850 2400 4850 2500
Wire Wire Line
	4850 2800 4850 2900
Wire Wire Line
	4850 2900 5350 2900
Wire Wire Line
	5550 2900 5550 2800
Wire Wire Line
	5450 2800 5450 2900
Connection ~ 5450 2900
Wire Wire Line
	5450 2900 5550 2900
Wire Wire Line
	5350 2800 5350 2900
Connection ~ 5350 2900
Wire Wire Line
	5350 2900 5450 2900
Wire Wire Line
	5450 2900 5450 2950
$Comp
L power:GND #PWR049
U 1 1 614AFA3B
P 5450 2950
F 0 "#PWR049" H 5450 2700 50  0001 C CNN
F 1 "GND" H 5455 2777 50  0000 C CNN
F 2 "" H 5450 2950 50  0001 C CNN
F 3 "" H 5450 2950 50  0001 C CNN
	1    5450 2950
	1    0    0    -1  
$EndComp
Wire Wire Line
	6100 2450 6100 2300
Connection ~ 6100 2300
Wire Wire Line
	5550 2900 6100 2900
Wire Wire Line
	6100 2900 6100 2750
Connection ~ 5550 2900
Wire Wire Line
	1750 1650 2000 1650
Wire Wire Line
	1750 1650 1750 1600
Wire Wire Line
	1750 2050 2000 2050
Wire Wire Line
	1750 2050 1750 2000
Wire Wire Line
	1750 2400 1750 2350
Wire Wire Line
	1750 2400 2000 2400
$Comp
L power:+3V3 #PWR06
U 1 1 61192ED8
P 1750 1600
F 0 "#PWR06" H 1750 1450 50  0001 C CNN
F 1 "+3V3" H 1765 1773 50  0000 C CNN
F 2 "" H 1750 1600 50  0001 C CNN
F 3 "" H 1750 1600 50  0001 C CNN
	1    1750 1600
	1    0    0    -1  
$EndComp
$Comp
L power:+5V #PWR047
U 1 1 6129440C
P 1750 2350
F 0 "#PWR047" H 1750 2200 50  0001 C CNN
F 1 "+5V" H 1765 2523 50  0000 C CNN
F 2 "" H 1750 2350 50  0001 C CNN
F 3 "" H 1750 2350 50  0001 C CNN
	1    1750 2350
	1    0    0    -1  
$EndComp
$Comp
L power:+3.3VADC #PWR09
U 1 1 612C1ABB
P 1750 2000
F 0 "#PWR09" H 1900 1950 50  0001 C CNN
F 1 "+3.3VADC" H 1770 2143 50  0000 C CNN
F 2 "" H 1750 2000 50  0001 C CNN
F 3 "" H 1750 2000 50  0001 C CNN
	1    1750 2000
	1    0    0    -1  
$EndComp
Wire Wire Line
	1750 2400 1500 2400
Wire Wire Line
	1500 2400 1500 2350
Connection ~ 1750 2400
$Comp
L power:PWR_FLAG #FLG0102
U 1 1 61544574
P 1500 2350
F 0 "#FLG0102" H 1500 2425 50  0001 C CNN
F 1 "PWR_FLAG" H 1500 2523 50  0000 C CNN
F 2 "" H 1500 2350 50  0001 C CNN
F 3 "~" H 1500 2350 50  0001 C CNN
	1    1500 2350
	1    0    0    -1  
$EndComp
$Sheet
S 950  5150 700  500 
U 61335D12
F0 "switchesBack" 50
F1 "switch_side.sch" 50
F2 "OUT1" I R 1650 5250 50 
F3 "OUT3" I R 1650 5450 50 
F4 "OUT2" I R 1650 5350 50 
F5 "OUT4" I R 1650 5550 50 
$EndSheet
$Comp
L power:GND #PWR019
U 1 1 61252865
P 9900 4200
F 0 "#PWR019" H 9900 3950 50  0001 C CNN
F 1 "GND" H 9905 4027 50  0000 C CNN
F 2 "" H 9900 4200 50  0001 C CNN
F 3 "" H 9900 4200 50  0001 C CNN
	1    9900 4200
	1    0    0    -1  
$EndComp
Wire Wire Line
	9900 4200 9900 4100
Wire Wire Line
	9900 4100 10000 4100
$Comp
L power:+3V3 #PWR018
U 1 1 6125A182
P 9900 3700
F 0 "#PWR018" H 9900 3550 50  0001 C CNN
F 1 "+3V3" H 9915 3873 50  0000 C CNN
F 2 "" H 9900 3700 50  0001 C CNN
F 3 "" H 9900 3700 50  0001 C CNN
	1    9900 3700
	1    0    0    -1  
$EndComp
Wire Wire Line
	9900 3700 9900 3800
Wire Wire Line
	9900 3800 10000 3800
$Comp
L power:+3V3 #PWR016
U 1 1 61279FF7
P 9750 1250
F 0 "#PWR016" H 9750 1100 50  0001 C CNN
F 1 "+3V3" H 9765 1423 50  0000 C CNN
F 2 "" H 9750 1250 50  0001 C CNN
F 3 "" H 9750 1250 50  0001 C CNN
	1    9750 1250
	1    0    0    -1  
$EndComp
$Comp
L power:GND #PWR017
U 1 1 6127A458
P 9750 1750
F 0 "#PWR017" H 9750 1500 50  0001 C CNN
F 1 "GND" H 9755 1577 50  0000 C CNN
F 2 "" H 9750 1750 50  0001 C CNN
F 3 "" H 9750 1750 50  0001 C CNN
	1    9750 1750
	1    0    0    -1  
$EndComp
Wire Wire Line
	9750 1250 9750 1350
Wire Wire Line
	9750 1350 9850 1350
Wire Wire Line
	9750 1750 9750 1650
Wire Wire Line
	9750 1650 9850 1650
Wire Wire Line
	9850 1450 9650 1450
Wire Wire Line
	9850 1550 9650 1550
Text Label 9650 1450 2    50   ~ 0
LEFTJ_VERT
Text Label 9650 1550 2    50   ~ 0
LEFTJ_HOR
NoConn ~ 3400 2750
$Comp
L SparkFun-Electromechanical:JOYSTICK-PSP1000 M1
U 1 1 611F3F8C
P 10250 1550
F 0 "M1" H 10378 1646 50  0000 L CNN
F 1 "JOYSTICK-PSP1000" H 10378 1555 50  0000 L CNN
F 2 "SparkFun-Electromechanical:JOYSTICK-PSP1000" H 10280 1700 20  0001 C CNN
F 3 "" H 10250 1550 50  0001 C CNN
	1    10250 1550
	1    0    0    -1  
$EndComp
$Comp
L SparkFun-Electromechanical:JOYSTICK-PSP1000 M2
U 1 1 611F42B8
P 10400 4000
F 0 "M2" H 10528 4096 50  0000 L CNN
F 1 "JOYSTICK-PSP1000" H 10528 4005 50  0000 L CNN
F 2 "SparkFun-Electromechanical:JOYSTICK-PSP1000" H 10430 4150 20  0001 C CNN
F 3 "" H 10400 4000 50  0001 C CNN
	1    10400 4000
	1    0    0    -1  
$EndComp
$Comp
L Mechanical:MountingHole_Pad H1
U 1 1 6127099B
P 5600 850
F 0 "H1" H 5700 853 50  0000 L CNN
F 1 "MountingHole_Pad" H 5700 808 50  0001 L CNN
F 2 "MountingHole:MountingHole_2.5mm_Pad_Via" H 5600 850 50  0001 C CNN
F 3 "~" H 5600 850 50  0001 C CNN
	1    5600 850 
	1    0    0    -1  
$EndComp
$Comp
L Mechanical:MountingHole_Pad H2
U 1 1 612716F6
P 5900 850
F 0 "H2" H 6000 853 50  0000 L CNN
F 1 "MountingHole_Pad" H 6000 808 50  0001 L CNN
F 2 "MountingHole:MountingHole_2.5mm_Pad_Via" H 5900 850 50  0001 C CNN
F 3 "~" H 5900 850 50  0001 C CNN
	1    5900 850 
	1    0    0    -1  
$EndComp
$Comp
L Mechanical:MountingHole_Pad H3
U 1 1 61277A6E
P 6200 850
F 0 "H3" H 6300 853 50  0000 L CNN
F 1 "MountingHole_Pad" H 6300 808 50  0001 L CNN
F 2 "MountingHole:MountingHole_2.5mm_Pad_Via" H 6200 850 50  0001 C CNN
F 3 "~" H 6200 850 50  0001 C CNN
	1    6200 850 
	1    0    0    -1  
$EndComp
$Comp
L Mechanical:MountingHole_Pad H4
U 1 1 61277CD3
P 6500 850
F 0 "H4" H 6600 853 50  0000 L CNN
F 1 "MountingHole_Pad" H 6600 808 50  0001 L CNN
F 2 "MountingHole:MountingHole_2.5mm_Pad_Via" H 6500 850 50  0001 C CNN
F 3 "~" H 6500 850 50  0001 C CNN
	1    6500 850 
	1    0    0    -1  
$EndComp
$Comp
L power:GND #PWR020
U 1 1 612784D9
P 5600 1050
F 0 "#PWR020" H 5600 800 50  0001 C CNN
F 1 "GND" H 5605 877 50  0000 C CNN
F 2 "" H 5600 1050 50  0001 C CNN
F 3 "" H 5600 1050 50  0001 C CNN
	1    5600 1050
	1    0    0    -1  
$EndComp
$Comp
L power:GND #PWR021
U 1 1 612788FE
P 5900 1050
F 0 "#PWR021" H 5900 800 50  0001 C CNN
F 1 "GND" H 5905 877 50  0000 C CNN
F 2 "" H 5900 1050 50  0001 C CNN
F 3 "" H 5900 1050 50  0001 C CNN
	1    5900 1050
	1    0    0    -1  
$EndComp
$Comp
L power:GND #PWR022
U 1 1 61278C7F
P 6200 1050
F 0 "#PWR022" H 6200 800 50  0001 C CNN
F 1 "GND" H 6205 877 50  0000 C CNN
F 2 "" H 6200 1050 50  0001 C CNN
F 3 "" H 6200 1050 50  0001 C CNN
	1    6200 1050
	1    0    0    -1  
$EndComp
$Comp
L power:GND #PWR051
U 1 1 61278FE3
P 6500 1050
F 0 "#PWR051" H 6500 800 50  0001 C CNN
F 1 "GND" H 6505 877 50  0000 C CNN
F 2 "" H 6500 1050 50  0001 C CNN
F 3 "" H 6500 1050 50  0001 C CNN
	1    6500 1050
	1    0    0    -1  
$EndComp
Wire Wire Line
	5600 1050 5600 950 
Wire Wire Line
	5900 1050 5900 950 
Wire Wire Line
	6200 1050 6200 950 
Wire Wire Line
	6500 1050 6500 950 
Wire Wire Line
	1050 4000 850  4000
Wire Wire Line
	2000 2850 850  2850
Wire Wire Line
	850  3400 850  3550
Connection ~ 1050 4000
Wire Wire Line
	1050 4050 1050 4000
$Comp
L power:GND #PWR015
U 1 1 6134F728
P 1050 4050
F 0 "#PWR015" H 1050 3800 50  0001 C CNN
F 1 "GND" H 1055 3877 50  0000 C CNN
F 2 "" H 1050 4050 50  0001 C CNN
F 3 "" H 1050 4050 50  0001 C CNN
	1    1050 4050
	-1   0    0    -1  
$EndComp
Wire Wire Line
	850  4000 850  3850
Wire Wire Line
	1200 4000 1050 4000
Wire Wire Line
	1200 3850 1200 4000
Wire Wire Line
	850  2850 850  3100
Wire Wire Line
	1200 2950 1200 3100
Wire Wire Line
	2000 2950 1200 2950
Wire Wire Line
	1200 3400 1200 3550
$Comp
L Device:R R14
U 1 1 6132C7C0
P 850 3250
F 0 "R14" H 920 3296 50  0000 L CNN
F 1 "330R" H 920 3205 50  0000 L CNN
F 2 "Resistor_SMD:R_0805_2012Metric" V 780 3250 50  0001 C CNN
F 3 "~" H 850 3250 50  0001 C CNN
	1    850  3250
	-1   0    0    -1  
$EndComp
$Comp
L Device:R R13
U 1 1 6131BAD5
P 1200 3250
F 0 "R13" H 1270 3296 50  0000 L CNN
F 1 "330R" H 1270 3205 50  0000 L CNN
F 2 "Resistor_SMD:R_0805_2012Metric" V 1130 3250 50  0001 C CNN
F 3 "~" H 1200 3250 50  0001 C CNN
	1    1200 3250
	-1   0    0    -1  
$EndComp
$Comp
L Device:LED D2
U 1 1 6131B4CE
P 850 3700
F 0 "D2" V 889 3583 50  0000 R CNN
F 1 "LED" V 798 3583 50  0000 R CNN
F 2 "Diode_SMD:D_1206_3216Metric_Pad1.42x1.75mm_HandSolder" H 850 3700 50  0001 C CNN
F 3 "~" H 850 3700 50  0001 C CNN
	1    850  3700
	0    1    -1   0   
$EndComp
$Comp
L Device:LED D1
U 1 1 6131A707
P 1200 3700
F 0 "D1" V 1239 3583 50  0000 R CNN
F 1 "LED" V 1148 3583 50  0000 R CNN
F 2 "Diode_SMD:D_1206_3216Metric_Pad1.42x1.75mm_HandSolder" H 1200 3700 50  0001 C CNN
F 3 "~" H 1200 3700 50  0001 C CNN
	1    1200 3700
	0    1    -1   0   
$EndComp
Text Label 3500 3350 0    50   ~ 0
BUTTON_DOWN
Wire Wire Line
	2000 3350 1900 3350
Text Label 1900 3250 2    50   ~ 0
BUTTON_L
Text Label 1900 3450 2    50   ~ 0
BUTTON_R
$Comp
L power:GND #PWR012
U 1 1 61368680
P 7650 3925
F 0 "#PWR012" H 7650 3675 50  0001 C CNN
F 1 "GND" H 7655 3752 50  0000 C CNN
F 2 "" H 7650 3925 50  0001 C CNN
F 3 "" H 7650 3925 50  0001 C CNN
	1    7650 3925
	1    0    0    -1  
$EndComp
Wire Wire Line
	7650 3825 7650 3925
$Comp
L Device:C C6
U 1 1 61368687
P 7650 3675
F 0 "C6" H 7765 3721 50  0000 L CNN
F 1 "2.2n" H 7765 3630 50  0000 L CNN
F 2 "Capacitor_SMD:C_0805_2012Metric" H 7688 3525 50  0001 C CNN
F 3 "~" H 7650 3675 50  0001 C CNN
	1    7650 3675
	1    0    0    -1  
$EndComp
$Comp
L power:+3V3 #PWR052
U 1 1 6137A156
P 7700 4950
F 0 "#PWR052" H 7700 4800 50  0001 C CNN
F 1 "+3V3" H 7715 5123 50  0000 C CNN
F 2 "" H 7700 4950 50  0001 C CNN
F 3 "" H 7700 4950 50  0001 C CNN
	1    7700 4950
	-1   0    0    -1  
$EndComp
$Comp
L Device:C C7
U 1 1 6137A67F
P 7700 5200
F 0 "C7" H 7815 5246 50  0000 L CNN
F 1 "100n" H 7815 5155 50  0000 L CNN
F 2 "Capacitor_SMD:C_0805_2012Metric" H 7738 5050 50  0001 C CNN
F 3 "~" H 7700 5200 50  0001 C CNN
	1    7700 5200
	1    0    0    -1  
$EndComp
Wire Wire Line
	7700 4950 7700 5050
Wire Wire Line
	7700 5350 7700 5450
$Comp
L power:GND #PWR053
U 1 1 61393F3C
P 7700 5450
F 0 "#PWR053" H 7700 5200 50  0001 C CNN
F 1 "GND" H 7705 5277 50  0000 C CNN
F 2 "" H 7700 5450 50  0001 C CNN
F 3 "" H 7700 5450 50  0001 C CNN
	1    7700 5450
	-1   0    0    -1  
$EndComp
Text Label 1900 3150 2    50   ~ 0
LEFT_BUT
Text Label 1900 3050 2    50   ~ 0
LEFT_TRIG
Text Label 3500 2950 0    50   ~ 0
RIGTHJ_SELECT
Text Label 3500 2350 0    50   ~ 0
BUTTON_X
NoConn ~ 3400 2650
$EndSCHEMATC
