EESchema Schematic File Version 4
EELAYER 30 0
EELAYER END
$Descr A4 11693 8268
encoding utf-8
Sheet 4 4
Title ""
Date ""
Rev ""
Comp ""
Comment1 ""
Comment2 ""
Comment3 ""
Comment4 ""
$EndDescr
$Comp
L Switch:SW_Push SW?
U 1 1 612A95E5
P 4900 4000
AR Path="/612A95E5" Ref="SW?"  Part="1" 
AR Path="/61282C66/612A95E5" Ref="SW13"  Part="1" 
AR Path="/6132BE1F/612A95E5" Ref="SW9"  Part="1" 
AR Path="/61335D12/612A95E5" Ref="SW5"  Part="1" 
F 0 "SW5" H 4900 4285 50  0000 C CNN
F 1 "PTS645VK83-2 LFS" H 4900 4194 50  0000 C CNN
F 2 "Button_Switch_THT:SW_Tactile_SPST_Angled_PTS645Vx83-2LFS" H 4900 4200 50  0001 C CNN
F 3 "~" H 4900 4200 50  0001 C CNN
	1    4900 4000
	0    1    1    0   
$EndComp
Wire Wire Line
	4900 4200 4900 4450
$Comp
L power:+3V3 #PWR?
U 1 1 611FB06A
P 4700 3500
AR Path="/611FB06A" Ref="#PWR?"  Part="1" 
AR Path="/61282C66/611FB06A" Ref="#PWR041"  Part="1" 
AR Path="/6132BE1F/611FB06A" Ref="#PWR033"  Part="1" 
AR Path="/61335D12/611FB06A" Ref="#PWR025"  Part="1" 
F 0 "#PWR025" H 4700 3350 50  0001 C CNN
F 1 "+3V3" H 4715 3673 50  0000 C CNN
F 2 "" H 4700 3500 50  0001 C CNN
F 3 "" H 4700 3500 50  0001 C CNN
	1    4700 3500
	1    0    0    -1  
$EndComp
$Comp
L Device:C C?
U 1 1 611FB06B
P 4500 4200
AR Path="/611FB06B" Ref="C?"  Part="1" 
AR Path="/61282C66/611FB06B" Ref="C18"  Part="1" 
AR Path="/6132BE1F/611FB06B" Ref="C14"  Part="1" 
AR Path="/61335D12/611FB06B" Ref="C10"  Part="1" 
F 0 "C10" H 4615 4246 50  0000 L CNN
F 1 "220n" H 4615 4155 50  0000 L CNN
F 2 "Capacitor_SMD:C_0805_2012Metric" H 4538 4050 50  0001 C CNN
F 3 "~" H 4500 4200 50  0001 C CNN
	1    4500 4200
	1    0    0    -1  
$EndComp
$Comp
L Device:R R?
U 1 1 611FB06C
P 4500 3800
AR Path="/611FB06C" Ref="R?"  Part="1" 
AR Path="/61282C66/611FB06C" Ref="R47"  Part="1" 
AR Path="/6132BE1F/611FB06C" Ref="R35"  Part="1" 
AR Path="/61335D12/611FB06C" Ref="R23"  Part="1" 
F 0 "R23" H 4570 3846 50  0000 L CNN
F 1 "1k" H 4570 3755 50  0000 L CNN
F 2 "Resistor_SMD:R_0805_2012Metric" V 4430 3800 50  0001 C CNN
F 3 "~" H 4500 3800 50  0001 C CNN
	1    4500 3800
	1    0    0    -1  
$EndComp
Wire Wire Line
	4500 3650 4500 3600
Wire Wire Line
	4900 3600 4900 3800
Wire Wire Line
	4500 3950 4500 4050
Wire Wire Line
	4500 4350 4500 4450
Wire Wire Line
	4700 3500 4700 3600
Wire Wire Line
	4500 4450 4900 4450
Connection ~ 4700 3600
Wire Wire Line
	4700 3600 4900 3600
Wire Wire Line
	4500 3600 4700 3600
Wire Wire Line
	4400 4450 4500 4450
Connection ~ 4500 4450
$Comp
L Device:R R?
U 1 1 612A9618
P 4250 4450
AR Path="/612A9618" Ref="R?"  Part="1" 
AR Path="/61282C66/612A9618" Ref="R45"  Part="1" 
AR Path="/6132BE1F/612A9618" Ref="R33"  Part="1" 
AR Path="/61335D12/612A9618" Ref="R21"  Part="1" 
F 0 "R21" V 4043 4450 50  0000 C CNN
F 1 "330R" V 4134 4450 50  0000 C CNN
F 2 "Resistor_SMD:R_0805_2012Metric" V 4180 4450 50  0001 C CNN
F 3 "~" H 4250 4450 50  0001 C CNN
	1    4250 4450
	0    1    1    0   
$EndComp
Wire Wire Line
	4100 4450 4050 4450
Wire Wire Line
	7000 4450 6950 4450
$Comp
L Device:R R?
U 1 1 611FB074
P 7150 4450
AR Path="/611FB074" Ref="R?"  Part="1" 
AR Path="/61282C66/611FB074" Ref="R50"  Part="1" 
AR Path="/6132BE1F/611FB074" Ref="R38"  Part="1" 
AR Path="/61335D12/611FB074" Ref="R26"  Part="1" 
F 0 "R26" V 6943 4450 50  0000 C CNN
F 1 "330R" V 7034 4450 50  0000 C CNN
F 2 "Resistor_SMD:R_0805_2012Metric" V 7080 4450 50  0001 C CNN
F 3 "~" H 7150 4450 50  0001 C CNN
	1    7150 4450
	0    1    1    0   
$EndComp
Connection ~ 7400 4450
Wire Wire Line
	7300 4450 7400 4450
Wire Wire Line
	7400 3600 7600 3600
Wire Wire Line
	7600 3600 7800 3600
Connection ~ 7600 3600
Wire Wire Line
	7400 4450 7800 4450
Wire Wire Line
	7600 3500 7600 3600
Wire Wire Line
	7400 4350 7400 4450
Wire Wire Line
	7400 3950 7400 4050
Wire Wire Line
	7800 3600 7800 3800
Wire Wire Line
	7400 3650 7400 3600
$Comp
L Device:R R?
U 1 1 612ABBC9
P 7400 3800
AR Path="/612ABBC9" Ref="R?"  Part="1" 
AR Path="/61282C66/612ABBC9" Ref="R52"  Part="1" 
AR Path="/6132BE1F/612ABBC9" Ref="R40"  Part="1" 
AR Path="/61335D12/612ABBC9" Ref="R28"  Part="1" 
F 0 "R28" H 7470 3846 50  0000 L CNN
F 1 "1k" H 7470 3755 50  0000 L CNN
F 2 "Resistor_SMD:R_0805_2012Metric" V 7330 3800 50  0001 C CNN
F 3 "~" H 7400 3800 50  0001 C CNN
	1    7400 3800
	1    0    0    -1  
$EndComp
$Comp
L Device:C C?
U 1 1 612ABBC3
P 7400 4200
AR Path="/612ABBC3" Ref="C?"  Part="1" 
AR Path="/61282C66/612ABBC3" Ref="C20"  Part="1" 
AR Path="/6132BE1F/612ABBC3" Ref="C16"  Part="1" 
AR Path="/61335D12/612ABBC3" Ref="C12"  Part="1" 
F 0 "C12" H 7515 4246 50  0000 L CNN
F 1 "220n" H 7515 4155 50  0000 L CNN
F 2 "Capacitor_SMD:C_0805_2012Metric" H 7438 4050 50  0001 C CNN
F 3 "~" H 7400 4200 50  0001 C CNN
	1    7400 4200
	1    0    0    -1  
$EndComp
Wire Wire Line
	7800 4450 7800 4500
Connection ~ 7800 4450
$Comp
L power:+3V3 #PWR?
U 1 1 612ABBBB
P 7600 3500
AR Path="/612ABBBB" Ref="#PWR?"  Part="1" 
AR Path="/61282C66/612ABBBB" Ref="#PWR044"  Part="1" 
AR Path="/6132BE1F/612ABBBB" Ref="#PWR036"  Part="1" 
AR Path="/61335D12/612ABBBB" Ref="#PWR028"  Part="1" 
F 0 "#PWR028" H 7600 3350 50  0001 C CNN
F 1 "+3V3" H 7615 3673 50  0000 C CNN
F 2 "" H 7600 3500 50  0001 C CNN
F 3 "" H 7600 3500 50  0001 C CNN
	1    7600 3500
	1    0    0    -1  
$EndComp
$Comp
L power:GND #PWR?
U 1 1 611FB070
P 7800 4850
AR Path="/611FB070" Ref="#PWR?"  Part="1" 
AR Path="/61282C66/611FB070" Ref="#PWR046"  Part="1" 
AR Path="/6132BE1F/611FB070" Ref="#PWR038"  Part="1" 
AR Path="/61335D12/611FB070" Ref="#PWR030"  Part="1" 
F 0 "#PWR030" H 7800 4600 50  0001 C CNN
F 1 "GND" H 7805 4677 50  0000 C CNN
F 2 "" H 7800 4850 50  0001 C CNN
F 3 "" H 7800 4850 50  0001 C CNN
	1    7800 4850
	1    0    0    -1  
$EndComp
Wire Wire Line
	7800 4800 7800 4850
$Comp
L Device:R R?
U 1 1 612ABBAE
P 7800 4650
AR Path="/612ABBAE" Ref="R?"  Part="1" 
AR Path="/61282C66/612ABBAE" Ref="R54"  Part="1" 
AR Path="/6132BE1F/612ABBAE" Ref="R42"  Part="1" 
AR Path="/61335D12/612ABBAE" Ref="R30"  Part="1" 
F 0 "R30" H 7870 4696 50  0000 L CNN
F 1 "100k" H 7870 4605 50  0000 L CNN
F 2 "Resistor_SMD:R_0805_2012Metric" V 7730 4650 50  0001 C CNN
F 3 "~" H 7800 4650 50  0001 C CNN
	1    7800 4650
	1    0    0    -1  
$EndComp
Wire Wire Line
	7800 4200 7800 4450
$Comp
L Switch:SW_Push SW?
U 1 1 611FB06E
P 7800 4000
AR Path="/611FB06E" Ref="SW?"  Part="1" 
AR Path="/61282C66/611FB06E" Ref="SW15"  Part="1" 
AR Path="/6132BE1F/611FB06E" Ref="SW11"  Part="1" 
AR Path="/61335D12/611FB06E" Ref="SW7"  Part="1" 
F 0 "SW7" H 7800 4285 50  0000 C CNN
F 1 "PTS645VK83-2 LFS" H 7800 4194 50  0000 C CNN
F 2 "Button_Switch_THT:SW_Tactile_SPST_Angled_PTS645Vx83-2LFS" H 7800 4200 50  0001 C CNN
F 3 "~" H 7800 4200 50  0001 C CNN
	1    7800 4000
	0    1    1    0   
$EndComp
Wire Wire Line
	7000 2250 6950 2250
$Comp
L Device:R R?
U 1 1 611FB068
P 7150 2250
AR Path="/611FB068" Ref="R?"  Part="1" 
AR Path="/61282C66/611FB068" Ref="R49"  Part="1" 
AR Path="/6132BE1F/611FB068" Ref="R37"  Part="1" 
AR Path="/61335D12/611FB068" Ref="R25"  Part="1" 
F 0 "R25" V 6943 2250 50  0000 C CNN
F 1 "330R" V 7034 2250 50  0000 C CNN
F 2 "Resistor_SMD:R_0805_2012Metric" V 7080 2250 50  0001 C CNN
F 3 "~" H 7150 2250 50  0001 C CNN
	1    7150 2250
	0    1    1    0   
$EndComp
Connection ~ 7400 2250
Wire Wire Line
	7300 2250 7400 2250
Wire Wire Line
	7400 1400 7600 1400
Wire Wire Line
	7600 1400 7800 1400
Connection ~ 7600 1400
Wire Wire Line
	7400 2250 7800 2250
Wire Wire Line
	7600 1300 7600 1400
Wire Wire Line
	7400 2150 7400 2250
Wire Wire Line
	7400 1750 7400 1850
Wire Wire Line
	7800 1400 7800 1600
Wire Wire Line
	7400 1450 7400 1400
$Comp
L Device:C C?
U 1 1 611FB066
P 7400 2000
AR Path="/611FB066" Ref="C?"  Part="1" 
AR Path="/61282C66/611FB066" Ref="C19"  Part="1" 
AR Path="/6132BE1F/611FB066" Ref="C15"  Part="1" 
AR Path="/61335D12/611FB066" Ref="C11"  Part="1" 
F 0 "C11" H 7515 2046 50  0000 L CNN
F 1 "220n" H 7515 1955 50  0000 L CNN
F 2 "Capacitor_SMD:C_0805_2012Metric" H 7438 1850 50  0001 C CNN
F 3 "~" H 7400 2000 50  0001 C CNN
	1    7400 2000
	1    0    0    -1  
$EndComp
Wire Wire Line
	7800 2250 7800 2300
Connection ~ 7800 2250
$Comp
L power:+3V3 #PWR?
U 1 1 612A6407
P 7600 1300
AR Path="/612A6407" Ref="#PWR?"  Part="1" 
AR Path="/61282C66/612A6407" Ref="#PWR043"  Part="1" 
AR Path="/6132BE1F/612A6407" Ref="#PWR035"  Part="1" 
AR Path="/61335D12/612A6407" Ref="#PWR027"  Part="1" 
F 0 "#PWR027" H 7600 1150 50  0001 C CNN
F 1 "+3V3" H 7615 1473 50  0000 C CNN
F 2 "" H 7600 1300 50  0001 C CNN
F 3 "" H 7600 1300 50  0001 C CNN
	1    7600 1300
	1    0    0    -1  
$EndComp
$Comp
L power:GND #PWR?
U 1 1 611FB064
P 7800 2650
AR Path="/611FB064" Ref="#PWR?"  Part="1" 
AR Path="/61282C66/611FB064" Ref="#PWR045"  Part="1" 
AR Path="/6132BE1F/611FB064" Ref="#PWR037"  Part="1" 
AR Path="/61335D12/611FB064" Ref="#PWR029"  Part="1" 
F 0 "#PWR029" H 7800 2400 50  0001 C CNN
F 1 "GND" H 7805 2477 50  0000 C CNN
F 2 "" H 7800 2650 50  0001 C CNN
F 3 "" H 7800 2650 50  0001 C CNN
	1    7800 2650
	1    0    0    -1  
$EndComp
Wire Wire Line
	7800 2600 7800 2650
$Comp
L Device:R R?
U 1 1 612A63FA
P 7800 2450
AR Path="/612A63FA" Ref="R?"  Part="1" 
AR Path="/61282C66/612A63FA" Ref="R53"  Part="1" 
AR Path="/6132BE1F/612A63FA" Ref="R41"  Part="1" 
AR Path="/61335D12/612A63FA" Ref="R29"  Part="1" 
F 0 "R29" H 7870 2496 50  0000 L CNN
F 1 "100k" H 7870 2405 50  0000 L CNN
F 2 "Resistor_SMD:R_0805_2012Metric" V 7730 2450 50  0001 C CNN
F 3 "~" H 7800 2450 50  0001 C CNN
	1    7800 2450
	1    0    0    -1  
$EndComp
Wire Wire Line
	7800 2000 7800 2250
$Comp
L Switch:SW_Push SW?
U 1 1 611FB062
P 7800 1800
AR Path="/611FB062" Ref="SW?"  Part="1" 
AR Path="/61282C66/611FB062" Ref="SW14"  Part="1" 
AR Path="/6132BE1F/611FB062" Ref="SW10"  Part="1" 
AR Path="/61335D12/611FB062" Ref="SW6"  Part="1" 
F 0 "SW6" H 7800 2085 50  0000 C CNN
F 1 "PTS645VK83-2 LFS" H 7800 1994 50  0000 C CNN
F 2 "Button_Switch_THT:SW_Tactile_SPST_Angled_PTS645Vx83-2LFS" H 7800 2000 50  0001 C CNN
F 3 "~" H 7800 2000 50  0001 C CNN
	1    7800 1800
	0    1    1    0   
$EndComp
$Comp
L Device:R R?
U 1 1 611FB067
P 7400 1600
AR Path="/611FB067" Ref="R?"  Part="1" 
AR Path="/61282C66/611FB067" Ref="R51"  Part="1" 
AR Path="/6132BE1F/611FB067" Ref="R39"  Part="1" 
AR Path="/61335D12/611FB067" Ref="R27"  Part="1" 
F 0 "R27" H 7470 1646 50  0000 L CNN
F 1 "1k" H 7470 1555 50  0000 L CNN
F 2 "Resistor_SMD:R_0805_2012Metric" V 7330 1600 50  0001 C CNN
F 3 "~" H 7400 1600 50  0001 C CNN
	1    7400 1600
	1    0    0    -1  
$EndComp
Wire Wire Line
	4100 1400 4300 1400
Wire Wire Line
	4300 1400 4500 1400
Connection ~ 4300 1400
Wire Wire Line
	4300 1300 4300 1400
Wire Wire Line
	4100 2150 4100 2250
Wire Wire Line
	4100 1750 4100 1850
Wire Wire Line
	4500 1400 4500 1600
Wire Wire Line
	4100 1450 4100 1400
$Comp
L Device:R R?
U 1 1 611FB060
P 4100 1600
AR Path="/611FB060" Ref="R?"  Part="1" 
AR Path="/61282C66/611FB060" Ref="R44"  Part="1" 
AR Path="/6132BE1F/611FB060" Ref="R32"  Part="1" 
AR Path="/61335D12/611FB060" Ref="R20"  Part="1" 
F 0 "R20" H 4170 1646 50  0000 L CNN
F 1 "1k" H 4170 1555 50  0000 L CNN
F 2 "Resistor_SMD:R_0805_2012Metric" V 4030 1600 50  0001 C CNN
F 3 "~" H 4100 1600 50  0001 C CNN
	1    4100 1600
	1    0    0    -1  
$EndComp
$Comp
L Device:C C?
U 1 1 612A2671
P 4100 2000
AR Path="/612A2671" Ref="C?"  Part="1" 
AR Path="/61282C66/612A2671" Ref="C17"  Part="1" 
AR Path="/6132BE1F/612A2671" Ref="C13"  Part="1" 
AR Path="/61335D12/612A2671" Ref="C9"  Part="1" 
F 0 "C9" H 4215 2046 50  0000 L CNN
F 1 "220n" H 4215 1955 50  0000 L CNN
F 2 "Capacitor_SMD:C_0805_2012Metric" H 4138 1850 50  0001 C CNN
F 3 "~" H 4100 2000 50  0001 C CNN
	1    4100 2000
	1    0    0    -1  
$EndComp
$Comp
L power:+3V3 #PWR?
U 1 1 612A2669
P 4300 1300
AR Path="/612A2669" Ref="#PWR?"  Part="1" 
AR Path="/61282C66/612A2669" Ref="#PWR039"  Part="1" 
AR Path="/6132BE1F/612A2669" Ref="#PWR031"  Part="1" 
AR Path="/61335D12/612A2669" Ref="#PWR023"  Part="1" 
F 0 "#PWR023" H 4300 1150 50  0001 C CNN
F 1 "+3V3" H 4315 1473 50  0000 C CNN
F 2 "" H 4300 1300 50  0001 C CNN
F 3 "" H 4300 1300 50  0001 C CNN
	1    4300 1300
	1    0    0    -1  
$EndComp
$Comp
L Switch:SW_Push SW?
U 1 1 611FB05B
P 4500 1800
AR Path="/611FB05B" Ref="SW?"  Part="1" 
AR Path="/61282C66/611FB05B" Ref="SW12"  Part="1" 
AR Path="/6132BE1F/611FB05B" Ref="SW8"  Part="1" 
AR Path="/61335D12/611FB05B" Ref="SW4"  Part="1" 
F 0 "SW4" H 4500 2085 50  0000 C CNN
F 1 "PTS645VK83-2 LFS" H 4500 1994 50  0000 C CNN
F 2 "Button_Switch_THT:SW_Tactile_SPST_Angled_PTS645Vx83-2LFS" H 4500 2000 50  0001 C CNN
F 3 "~" H 4500 2000 50  0001 C CNN
	1    4500 1800
	0    1    1    0   
$EndComp
$Comp
L power:GND #PWR?
U 1 1 612A2663
P 4500 2650
AR Path="/612A2663" Ref="#PWR?"  Part="1" 
AR Path="/61282C66/612A2663" Ref="#PWR040"  Part="1" 
AR Path="/6132BE1F/612A2663" Ref="#PWR032"  Part="1" 
AR Path="/61335D12/612A2663" Ref="#PWR024"  Part="1" 
F 0 "#PWR024" H 4500 2400 50  0001 C CNN
F 1 "GND" H 4505 2477 50  0000 C CNN
F 2 "" H 4500 2650 50  0001 C CNN
F 3 "" H 4500 2650 50  0001 C CNN
	1    4500 2650
	1    0    0    -1  
$EndComp
Wire Wire Line
	4500 2600 4500 2650
$Comp
L Device:R R?
U 1 1 611FB05C
P 4500 2450
AR Path="/611FB05C" Ref="R?"  Part="1" 
AR Path="/61282C66/611FB05C" Ref="R46"  Part="1" 
AR Path="/6132BE1F/611FB05C" Ref="R34"  Part="1" 
AR Path="/61335D12/611FB05C" Ref="R22"  Part="1" 
F 0 "R22" H 4570 2496 50  0000 L CNN
F 1 "100k" H 4570 2405 50  0000 L CNN
F 2 "Resistor_SMD:R_0805_2012Metric" V 4430 2450 50  0001 C CNN
F 3 "~" H 4500 2450 50  0001 C CNN
	1    4500 2450
	1    0    0    -1  
$EndComp
Wire Wire Line
	4500 2250 4500 2300
Connection ~ 4500 2250
Wire Wire Line
	4500 2000 4500 2250
Wire Wire Line
	4100 2250 4500 2250
Text HLabel 3650 2250 0    50   Input ~ 0
OUT1
Connection ~ 4100 2250
Wire Wire Line
	3700 2250 3650 2250
$Comp
L Device:R R?
U 1 1 612A2688
P 3850 2250
AR Path="/612A2688" Ref="R?"  Part="1" 
AR Path="/61282C66/612A2688" Ref="R43"  Part="1" 
AR Path="/6132BE1F/612A2688" Ref="R31"  Part="1" 
AR Path="/61335D12/612A2688" Ref="R19"  Part="1" 
F 0 "R19" V 3643 2250 50  0000 C CNN
F 1 "330R" V 3734 2250 50  0000 C CNN
F 2 "Resistor_SMD:R_0805_2012Metric" V 3780 2250 50  0001 C CNN
F 3 "~" H 3850 2250 50  0001 C CNN
	1    3850 2250
	0    1    1    0   
$EndComp
Wire Wire Line
	4000 2250 4100 2250
Text HLabel 4050 4450 0    50   Input ~ 0
OUT3
Text HLabel 6950 2250 0    50   Input ~ 0
OUT2
Text HLabel 6950 4450 0    50   Input ~ 0
OUT4
Wire Wire Line
	4900 4450 4900 4500
Connection ~ 4900 4450
$Comp
L Device:R R24
U 1 1 6136BFC5
P 4900 4650
AR Path="/61335D12/6136BFC5" Ref="R24"  Part="1" 
AR Path="/6132BE1F/6136BFC5" Ref="R36"  Part="1" 
AR Path="/61282C66/6136BFC5" Ref="R48"  Part="1" 
F 0 "R24" H 4970 4696 50  0000 L CNN
F 1 "100k" H 4970 4605 50  0000 L CNN
F 2 "Resistor_SMD:R_0805_2012Metric" V 4830 4650 50  0001 C CNN
F 3 "~" H 4900 4650 50  0001 C CNN
	1    4900 4650
	1    0    0    -1  
$EndComp
Wire Wire Line
	4900 4800 4900 4850
$Comp
L power:GND #PWR026
U 1 1 611FB076
P 4900 4850
AR Path="/61335D12/611FB076" Ref="#PWR026"  Part="1" 
AR Path="/6132BE1F/611FB076" Ref="#PWR034"  Part="1" 
AR Path="/61282C66/611FB076" Ref="#PWR042"  Part="1" 
F 0 "#PWR026" H 4900 4600 50  0001 C CNN
F 1 "GND" H 4905 4677 50  0000 C CNN
F 2 "" H 4900 4850 50  0001 C CNN
F 3 "" H 4900 4850 50  0001 C CNN
	1    4900 4850
	1    0    0    -1  
$EndComp
$EndSCHEMATC
