EESchema Schematic File Version 4
EELAYER 30 0
EELAYER END
$Descr A4 11693 8268
encoding utf-8
Sheet 1 1
Title ""
Date ""
Rev ""
Comp ""
Comment1 ""
Comment2 ""
Comment3 ""
Comment4 ""
$EndDescr
$Comp
L Device:R R1
U 1 1 612ECDE3
P 5250 3600
F 0 "R1" V 5043 3600 50  0000 C CNN
F 1 "220R" V 5134 3600 50  0000 C CNN
F 2 "Resistor_SMD:R_0805_2012Metric" V 5180 3600 50  0001 C CNN
F 3 "~" H 5250 3600 50  0001 C CNN
	1    5250 3600
	0    1    1    0   
$EndComp
$Comp
L Device:R R2
U 1 1 612ED28B
P 5250 4850
F 0 "R2" V 5043 4850 50  0000 C CNN
F 1 "220R" V 5134 4850 50  0000 C CNN
F 2 "Resistor_SMD:R_0805_2012Metric" V 5180 4850 50  0001 C CNN
F 3 "~" H 5250 4850 50  0001 C CNN
	1    5250 4850
	0    1    1    0   
$EndComp
$Comp
L Device:R R3
U 1 1 612ED971
P 5950 3900
F 0 "R3" H 5880 3854 50  0000 R CNN
F 1 "100R" H 5880 3945 50  0000 R CNN
F 2 "Resistor_SMD:R_0805_2012Metric" V 5880 3900 50  0001 C CNN
F 3 "~" H 5950 3900 50  0001 C CNN
	1    5950 3900
	-1   0    0    1   
$EndComp
$Comp
L Device:R R5
U 1 1 612EDD22
P 6650 3900
F 0 "R5" H 6580 3854 50  0000 R CNN
F 1 "1.8k" H 6580 3945 50  0000 R CNN
F 2 "Resistor_SMD:R_0805_2012Metric" V 6580 3900 50  0001 C CNN
F 3 "~" H 6650 3900 50  0001 C CNN
	1    6650 3900
	-1   0    0    1   
$EndComp
$Comp
L Device:R R4
U 1 1 612EDE2A
P 5950 5200
F 0 "R4" H 5880 5154 50  0000 R CNN
F 1 "100R" H 5880 5245 50  0000 R CNN
F 2 "Resistor_SMD:R_0805_2012Metric" V 5880 5200 50  0001 C CNN
F 3 "~" H 5950 5200 50  0001 C CNN
	1    5950 5200
	-1   0    0    1   
$EndComp
$Comp
L Device:R R6
U 1 1 612EE0C0
P 6650 5200
F 0 "R6" H 6580 5154 50  0000 R CNN
F 1 "1.8k" H 6580 5245 50  0000 R CNN
F 2 "Resistor_SMD:R_0805_2012Metric" V 6580 5200 50  0001 C CNN
F 3 "~" H 6650 5200 50  0001 C CNN
	1    6650 5200
	-1   0    0    1   
$EndComp
$Comp
L Device:C C4
U 1 1 612EE46A
P 5550 5200
F 0 "C4" H 5665 5246 50  0000 L CNN
F 1 "100n" H 5665 5155 50  0000 L CNN
F 2 "Capacitor_SMD:C_0805_2012Metric" H 5588 5050 50  0001 C CNN
F 3 "~" H 5550 5200 50  0001 C CNN
	1    5550 5200
	1    0    0    -1  
$EndComp
$Comp
L Device:C C6
U 1 1 612EE7CA
P 6300 4850
F 0 "C6" V 6048 4850 50  0000 C CNN
F 1 "47u" V 6139 4850 50  0000 C CNN
F 2 "Capacitor_SMD:C_1210_3225Metric" H 6338 4700 50  0001 C CNN
F 3 "~" H 6300 4850 50  0001 C CNN
	1    6300 4850
	0    1    1    0   
$EndComp
$Comp
L Device:C C3
U 1 1 612F879B
P 5550 3900
F 0 "C3" H 5665 3946 50  0000 L CNN
F 1 "100n" H 5665 3855 50  0000 L CNN
F 2 "Capacitor_SMD:C_0805_2012Metric" H 5588 3750 50  0001 C CNN
F 3 "~" H 5550 3900 50  0001 C CNN
	1    5550 3900
	1    0    0    -1  
$EndComp
$Comp
L Device:C C5
U 1 1 612FC35E
P 6300 3600
F 0 "C5" V 6048 3600 50  0000 C CNN
F 1 "47u" V 6139 3600 50  0000 C CNN
F 2 "Capacitor_SMD:C_1210_3225Metric" H 6338 3450 50  0001 C CNN
F 3 "~" H 6300 3600 50  0001 C CNN
	1    6300 3600
	0    1    1    0   
$EndComp
$Comp
L power:GND #PWR031
U 1 1 61301EE2
P 8000 4550
F 0 "#PWR031" H 8000 4300 50  0001 C CNN
F 1 "GND" H 8005 4377 50  0000 C CNN
F 2 "" H 8000 4550 50  0001 C CNN
F 3 "" H 8000 4550 50  0001 C CNN
	1    8000 4550
	-1   0    0    -1  
$EndComp
Wire Wire Line
	8000 4450 8000 4550
$Comp
L Connector:AudioJack3_Ground J3
U 1 1 612FEF22
P 8000 4150
F 0 "J3" H 7982 4475 50  0000 C CNN
F 1 "Lumberg 1503 03" H 7982 4384 50  0000 C CNN
F 2 "user_footprints:audio_3.5mm_lumberg_1503_03" H 8000 4150 50  0001 C CNN
F 3 "~" H 8000 4150 50  0001 C CNN
	1    8000 4150
	-1   0    0    -1  
$EndComp
$Comp
L 74xGxx:74LVC2G34 U1
U 2 1 612E7D62
P 4650 4850
F 0 "U1" H 4200 5150 50  0000 C CNN
F 1 "74LVC2G34" H 4350 5050 50  0000 C CNN
F 2 "Package_SO:SC-74-6_1.5x2.9mm_P0.95mm" H 4650 4850 50  0001 C CNN
F 3 "http://www.ti.com/lit/sg/scyt129e/scyt129e.pdf" H 4650 4850 50  0001 C CNN
	2    4650 4850
	1    0    0    -1  
$EndComp
$Comp
L 74xGxx:74LVC2G34 U1
U 1 1 612E7751
P 4650 3600
F 0 "U1" H 4200 3900 50  0000 C CNN
F 1 "74LVC2G34" H 4350 3800 50  0000 C CNN
F 2 "Package_SO:SC-74-6_1.5x2.9mm_P0.95mm" H 4650 3600 50  0001 C CNN
F 3 "http://www.ti.com/lit/sg/scyt129e/scyt129e.pdf" H 4650 3600 50  0001 C CNN
	1    4650 3600
	1    0    0    -1  
$EndComp
Wire Wire Line
	4900 3600 5100 3600
Wire Wire Line
	5400 3600 5550 3600
Wire Wire Line
	5550 3600 5550 3750
Wire Wire Line
	5950 3750 5950 3600
Connection ~ 5950 3600
Wire Wire Line
	5950 3600 6150 3600
Wire Wire Line
	6450 3600 6650 3600
Wire Wire Line
	6650 3600 6650 3750
Wire Wire Line
	4900 4850 5100 4850
Wire Wire Line
	5400 4850 5550 4850
Wire Wire Line
	5550 5050 5550 4850
Wire Wire Line
	5950 5050 5950 4850
Connection ~ 5950 4850
Wire Wire Line
	5950 4850 6150 4850
Wire Wire Line
	6450 4850 6650 4850
Wire Wire Line
	6650 4850 6650 5050
Wire Wire Line
	5550 5350 5550 5450
Wire Wire Line
	6650 5450 6650 5350
Wire Wire Line
	5950 5350 5950 5450
Connection ~ 5950 5450
Wire Wire Line
	5950 5450 6650 5450
Wire Wire Line
	5550 4050 5550 4150
Wire Wire Line
	5550 4150 5950 4150
Wire Wire Line
	6650 4150 6650 4050
Wire Wire Line
	5950 4050 5950 4150
Connection ~ 5950 4150
Wire Wire Line
	5950 4150 6650 4150
Wire Wire Line
	5950 5550 5950 5450
Wire Wire Line
	4650 3700 4650 3800
$Comp
L power:GND #PWR022
U 1 1 613190F2
P 4650 3800
F 0 "#PWR022" H 4650 3550 50  0001 C CNN
F 1 "GND" H 4655 3627 50  0000 C CNN
F 2 "" H 4650 3800 50  0001 C CNN
F 3 "" H 4650 3800 50  0001 C CNN
	1    4650 3800
	-1   0    0    -1  
$EndComp
Wire Wire Line
	4650 4950 4650 5050
$Comp
L power:GND #PWR024
U 1 1 6131A6E9
P 4650 5050
F 0 "#PWR024" H 4650 4800 50  0001 C CNN
F 1 "GND" H 4655 4877 50  0000 C CNN
F 2 "" H 4650 5050 50  0001 C CNN
F 3 "" H 4650 5050 50  0001 C CNN
	1    4650 5050
	-1   0    0    -1  
$EndComp
Wire Wire Line
	4650 3500 4650 3350
Wire Wire Line
	4650 4750 4650 4600
$Comp
L power:+3V3 #PWR023
U 1 1 6131DBDD
P 4650 4600
F 0 "#PWR023" H 4650 4450 50  0001 C CNN
F 1 "+3V3" H 4665 4773 50  0000 C CNN
F 2 "" H 4650 4600 50  0001 C CNN
F 3 "" H 4650 4600 50  0001 C CNN
	1    4650 4600
	1    0    0    -1  
$EndComp
$Comp
L power:+3V3 #PWR021
U 1 1 6131E674
P 4650 3350
F 0 "#PWR021" H 4650 3200 50  0001 C CNN
F 1 "+3V3" H 4665 3523 50  0000 C CNN
F 2 "" H 4650 3350 50  0001 C CNN
F 3 "" H 4650 3350 50  0001 C CNN
	1    4650 3350
	1    0    0    -1  
$EndComp
Connection ~ 6650 3600
Connection ~ 6650 4850
Text Label 7000 3600 0    50   ~ 0
AUDIO_L
Text Label 6850 4850 0    50   ~ 0
AUDIO_R
Wire Wire Line
	6650 4850 7250 4850
Wire Wire Line
	6650 3600 7350 3600
Wire Wire Line
	5550 3600 5950 3600
Connection ~ 5550 3600
Wire Wire Line
	5550 4850 5950 4850
Connection ~ 5550 4850
Wire Wire Line
	5550 5450 5950 5450
Wire Wire Line
	4350 3600 4100 3600
Wire Wire Line
	4100 4850 4350 4850
Text Label 3500 3600 0    50   ~ 0
PWM1
$Comp
L power:GND #PWR033
U 1 1 6132097B
P 9550 4900
F 0 "#PWR033" H 9550 4650 50  0001 C CNN
F 1 "GND" H 9555 4727 50  0000 C CNN
F 2 "" H 9550 4900 50  0001 C CNN
F 3 "" H 9550 4900 50  0001 C CNN
	1    9550 4900
	-1   0    0    -1  
$EndComp
$Comp
L Device:C C2
U 1 1 6134759A
P 4850 6000
F 0 "C2" H 4965 6046 50  0000 L CNN
F 1 "100n" H 4965 5955 50  0000 L CNN
F 2 "Capacitor_SMD:C_0805_2012Metric" H 4888 5850 50  0001 C CNN
F 3 "~" H 4850 6000 50  0001 C CNN
	1    4850 6000
	1    0    0    -1  
$EndComp
$Comp
L Device:C C1
U 1 1 61347F3A
P 4450 6000
F 0 "C1" H 4565 6046 50  0000 L CNN
F 1 "1u" H 4565 5955 50  0000 L CNN
F 2 "Capacitor_SMD:C_0805_2012Metric" H 4488 5850 50  0001 C CNN
F 3 "~" H 4450 6000 50  0001 C CNN
	1    4450 6000
	1    0    0    -1  
$EndComp
Wire Wire Line
	4450 5850 4450 5800
Wire Wire Line
	4450 5800 4650 5800
Wire Wire Line
	4850 5800 4850 5850
Wire Wire Line
	4450 6150 4450 6200
Wire Wire Line
	4450 6200 4650 6200
Wire Wire Line
	4850 6200 4850 6150
Wire Wire Line
	4650 6200 4650 6250
Connection ~ 4650 6200
Wire Wire Line
	4650 6200 4850 6200
Wire Wire Line
	4650 5800 4650 5750
Connection ~ 4650 5800
Wire Wire Line
	4650 5800 4850 5800
$Comp
L power:GND #PWR026
U 1 1 6134E89F
P 4650 6250
F 0 "#PWR026" H 4650 6000 50  0001 C CNN
F 1 "GND" H 4655 6077 50  0000 C CNN
F 2 "" H 4650 6250 50  0001 C CNN
F 3 "" H 4650 6250 50  0001 C CNN
	1    4650 6250
	-1   0    0    -1  
$EndComp
$Comp
L power:+3V3 #PWR025
U 1 1 6134EBFC
P 4650 5750
F 0 "#PWR025" H 4650 5600 50  0001 C CNN
F 1 "+3V3" H 4665 5923 50  0000 C CNN
F 2 "" H 4650 5750 50  0001 C CNN
F 3 "" H 4650 5750 50  0001 C CNN
	1    4650 5750
	1    0    0    -1  
$EndComp
$Comp
L Device:CP C8
U 1 1 613592AE
P 10500 4650
F 0 "C8" H 10618 4696 50  0000 L CNN
F 1 "100u" H 10618 4605 50  0000 L CNN
F 2 "Capacitor_SMD:CP_Elec_8x6.2" H 10538 4500 50  0001 C CNN
F 3 "~" H 10500 4650 50  0001 C CNN
	1    10500 4650
	1    0    0    -1  
$EndComp
$Comp
L Device:CP C7
U 1 1 6135BDEE
P 8750 4650
F 0 "C7" H 8868 4696 50  0000 L CNN
F 1 "10u" H 8868 4605 50  0000 L CNN
F 2 "Capacitor_SMD:CP_Elec_4x5.8" H 8788 4500 50  0001 C CNN
F 3 "~" H 8750 4650 50  0001 C CNN
	1    8750 4650
	1    0    0    -1  
$EndComp
Wire Wire Line
	8750 4500 8750 4400
Wire Wire Line
	10500 4400 10500 4500
Wire Wire Line
	8750 4800 8750 4850
Wire Wire Line
	10500 4850 10500 4800
Wire Wire Line
	8750 4400 8750 4250
Connection ~ 8750 4400
Connection ~ 10500 4400
Wire Wire Line
	10500 4250 10500 4400
$Comp
L power:+5V #PWR032
U 1 1 613693D1
P 8750 4250
F 0 "#PWR032" H 8750 4100 50  0001 C CNN
F 1 "+5V" H 8765 4423 50  0000 C CNN
F 2 "" H 8750 4250 50  0001 C CNN
F 3 "" H 8750 4250 50  0001 C CNN
	1    8750 4250
	1    0    0    -1  
$EndComp
$Comp
L power:+3V3 #PWR034
U 1 1 613698B2
P 10500 4250
F 0 "#PWR034" H 10500 4100 50  0001 C CNN
F 1 "+3V3" H 10515 4423 50  0000 C CNN
F 2 "" H 10500 4250 50  0001 C CNN
F 3 "" H 10500 4250 50  0001 C CNN
	1    10500 4250
	1    0    0    -1  
$EndComp
$Comp
L user_power:ESDA6V1L U2
U 1 1 6132393C
P 7450 5200
F 0 "U2" H 7655 5246 50  0000 L CNN
F 1 "ESDA6V1L" H 7655 5155 50  0000 L CNN
F 2 "Package_TO_SOT_SMD:SOT-23" H 7450 5600 50  0001 C CNN
F 3 "" H 7450 5600 50  0001 C CNN
	1    7450 5200
	-1   0    0    -1  
$EndComp
Wire Wire Line
	5950 4150 5950 4250
$Comp
L Regulator_Linear:TLV1117-33 U3
U 1 1 614958F4
P 9550 4400
F 0 "U3" H 9550 4642 50  0000 C CNN
F 1 "TLV1117-33" H 9550 4551 50  0000 C CNN
F 2 "Package_TO_SOT_SMD:SOT-223" H 9550 4400 50  0001 C CNN
F 3 "http://www.ti.com/lit/ds/symlink/tlv1117.pdf" H 9550 4400 50  0001 C CNN
	1    9550 4400
	1    0    0    -1  
$EndComp
Wire Wire Line
	7800 4050 7600 4050
$Comp
L power:GND #PWR0101
U 1 1 6166DE21
P 7600 4050
F 0 "#PWR0101" H 7600 3800 50  0001 C CNN
F 1 "GND" H 7605 3877 50  0000 C CNN
F 2 "" H 7600 4050 50  0001 C CNN
F 3 "" H 7600 4050 50  0001 C CNN
	1    7600 4050
	0    1    -1   0   
$EndComp
$Comp
L power:GND #PWR0102
U 1 1 61670495
P 5950 5550
F 0 "#PWR0102" H 5950 5300 50  0001 C CNN
F 1 "GND" H 5955 5377 50  0000 C CNN
F 2 "" H 5950 5550 50  0001 C CNN
F 3 "" H 5950 5550 50  0001 C CNN
	1    5950 5550
	1    0    0    -1  
$EndComp
$Comp
L power:GND #PWR0103
U 1 1 6167101F
P 7450 5550
F 0 "#PWR0103" H 7450 5300 50  0001 C CNN
F 1 "GND" H 7455 5377 50  0000 C CNN
F 2 "" H 7450 5550 50  0001 C CNN
F 3 "" H 7450 5550 50  0001 C CNN
	1    7450 5550
	1    0    0    -1  
$EndComp
Wire Wire Line
	7450 5400 7450 5550
$Comp
L power:GND #PWR0104
U 1 1 61672AD3
P 5950 4250
F 0 "#PWR0104" H 5950 4000 50  0001 C CNN
F 1 "GND" H 5955 4077 50  0000 C CNN
F 2 "" H 5950 4250 50  0001 C CNN
F 3 "" H 5950 4250 50  0001 C CNN
	1    5950 4250
	-1   0    0    -1  
$EndComp
$Comp
L Diode:1N4148 D1
U 1 1 6168D664
P 9550 3950
F 0 "D1" H 9550 4166 50  0000 C CNN
F 1 "1N4148" H 9550 4075 50  0000 C CNN
F 2 "Diode_SMD:D_MiniMELF" H 9550 3775 50  0001 C CNN
F 3 "https://assets.nexperia.com/documents/data-sheet/1N4148_1N4448.pdf" H 9550 3950 50  0001 C CNN
	1    9550 3950
	1    0    0    -1  
$EndComp
Wire Wire Line
	9550 4700 9550 4850
Connection ~ 9550 4850
Wire Wire Line
	9550 4850 9550 4900
Wire Wire Line
	9100 3950 9100 4400
Wire Wire Line
	8750 4400 9100 4400
Connection ~ 9100 4400
Wire Wire Line
	9700 3950 10050 3950
Wire Wire Line
	10050 3950 10050 4400
Text Notes 9100 5450 0    50   ~ 0
Capacitor should be tantalum \nor electrolitic. 
Text Notes 10000 5050 0    50   ~ 0
EEEFC1C101AP
$Comp
L Device:C C10
U 1 1 614CBE1D
P 10050 4650
F 0 "C10" H 10165 4696 50  0000 L CNN
F 1 "100n" H 10165 4605 50  0000 L CNN
F 2 "Capacitor_SMD:C_0805_2012Metric" H 10088 4500 50  0001 C CNN
F 3 "~" H 10050 4650 50  0001 C CNN
	1    10050 4650
	1    0    0    -1  
$EndComp
$Comp
L Device:C C9
U 1 1 614CC27F
P 9100 4650
F 0 "C9" H 9215 4696 50  0000 L CNN
F 1 "100n" H 9215 4605 50  0000 L CNN
F 2 "Capacitor_SMD:C_0805_2012Metric" H 9138 4500 50  0001 C CNN
F 3 "~" H 9100 4650 50  0001 C CNN
	1    9100 4650
	1    0    0    -1  
$EndComp
Wire Wire Line
	9100 4400 9250 4400
Wire Wire Line
	8750 4850 9100 4850
Wire Wire Line
	9100 3950 9400 3950
Connection ~ 10050 4400
Wire Wire Line
	9850 4400 10050 4400
Wire Wire Line
	9550 4850 10050 4850
Wire Wire Line
	10050 4500 10050 4400
Wire Wire Line
	10050 4400 10500 4400
Wire Wire Line
	10050 4800 10050 4850
Connection ~ 10050 4850
Wire Wire Line
	10050 4850 10500 4850
Wire Wire Line
	9100 4500 9100 4400
Wire Wire Line
	9100 4800 9100 4850
Connection ~ 9100 4850
Wire Wire Line
	9100 4850 9550 4850
Text Notes 8500 5050 0    50   ~ 0
EEEHC1C100R
$Comp
L Device:LED D4
U 1 1 614DC1A8
P 4650 2500
F 0 "D4" H 4643 2245 50  0000 C CNN
F 1 "LED" H 4643 2336 50  0000 C CNN
F 2 "Diode_SMD:D_1206_3216Metric" H 4650 2500 50  0001 C CNN
F 3 "~" H 4650 2500 50  0001 C CNN
	1    4650 2500
	-1   0    0    1   
$EndComp
$Comp
L Device:LED D3
U 1 1 614DCF43
P 4650 2100
F 0 "D3" H 4643 1845 50  0000 C CNN
F 1 "LED" H 4643 1936 50  0000 C CNN
F 2 "Diode_SMD:D_1206_3216Metric" H 4650 2100 50  0001 C CNN
F 3 "~" H 4650 2100 50  0001 C CNN
	1    4650 2100
	-1   0    0    1   
$EndComp
$Comp
L Device:LED D2
U 1 1 614E1789
P 4650 1700
F 0 "D2" H 4643 1445 50  0000 C CNN
F 1 "LED" H 4643 1536 50  0000 C CNN
F 2 "Diode_SMD:D_1206_3216Metric" H 4650 1700 50  0001 C CNN
F 3 "~" H 4650 1700 50  0001 C CNN
	1    4650 1700
	-1   0    0    1   
$EndComp
Wire Wire Line
	4500 1700 4400 1700
Wire Wire Line
	4500 2100 4400 2100
Wire Wire Line
	4800 1700 4900 1700
Wire Wire Line
	4800 2100 4900 2100
Wire Wire Line
	4800 2500 4900 2500
$Comp
L Device:R R15
U 1 1 615295B8
P 5050 1700
F 0 "R15" V 4843 1700 50  0000 C CNN
F 1 "470R" V 4934 1700 50  0000 C CNN
F 2 "Resistor_SMD:R_0805_2012Metric" V 4980 1700 50  0001 C CNN
F 3 "~" H 5050 1700 50  0001 C CNN
	1    5050 1700
	0    1    1    0   
$EndComp
$Comp
L Device:R R16
U 1 1 61529B91
P 5050 2100
F 0 "R16" V 4843 2100 50  0000 C CNN
F 1 "470R" V 4934 2100 50  0000 C CNN
F 2 "Resistor_SMD:R_0805_2012Metric" V 4980 2100 50  0001 C CNN
F 3 "~" H 5050 2100 50  0001 C CNN
	1    5050 2100
	0    1    1    0   
$EndComp
$Comp
L Device:R R17
U 1 1 61529ED7
P 5050 2500
F 0 "R17" V 4843 2500 50  0000 C CNN
F 1 "470R" V 4934 2500 50  0000 C CNN
F 2 "Resistor_SMD:R_0805_2012Metric" V 4980 2500 50  0001 C CNN
F 3 "~" H 5050 2500 50  0001 C CNN
	1    5050 2500
	0    1    1    0   
$EndComp
Wire Wire Line
	5200 2500 5350 2500
Wire Wire Line
	5200 2100 5350 2100
Wire Wire Line
	5200 1700 5350 1700
Wire Wire Line
	5350 1700 5350 2100
Connection ~ 5350 2100
Wire Wire Line
	5350 2100 5350 2500
$Comp
L power:GND #PWR07
U 1 1 61563F27
P 5350 2600
F 0 "#PWR07" H 5350 2350 50  0001 C CNN
F 1 "GND" H 5355 2427 50  0000 C CNN
F 2 "" H 5350 2600 50  0001 C CNN
F 3 "" H 5350 2600 50  0001 C CNN
	1    5350 2600
	-1   0    0    -1  
$EndComp
Wire Wire Line
	5350 2600 5350 2500
Connection ~ 5350 2500
Wire Wire Line
	4500 2500 4400 2500
$Comp
L Device:R R12
U 1 1 6157AC0A
P 4250 1700
F 0 "R12" V 4043 1700 50  0000 C CNN
F 1 "0R" V 4134 1700 50  0000 C CNN
F 2 "Resistor_SMD:R_0805_2012Metric" V 4180 1700 50  0001 C CNN
F 3 "~" H 4250 1700 50  0001 C CNN
	1    4250 1700
	0    1    1    0   
$EndComp
$Comp
L Device:R R13
U 1 1 6157C1BA
P 4250 2100
F 0 "R13" V 4043 2100 50  0000 C CNN
F 1 "0R" V 4134 2100 50  0000 C CNN
F 2 "Resistor_SMD:R_0805_2012Metric" V 4180 2100 50  0001 C CNN
F 3 "~" H 4250 2100 50  0001 C CNN
	1    4250 2100
	0    1    1    0   
$EndComp
$Comp
L Device:R R14
U 1 1 6157C4B6
P 4250 2500
F 0 "R14" V 4043 2500 50  0000 C CNN
F 1 "0R" V 4134 2500 50  0000 C CNN
F 2 "Resistor_SMD:R_0805_2012Metric" V 4180 2500 50  0001 C CNN
F 3 "~" H 4250 2500 50  0001 C CNN
	1    4250 2500
	0    1    1    0   
$EndComp
Wire Wire Line
	4100 2500 3700 2500
Wire Wire Line
	3700 2100 4100 2100
Wire Wire Line
	3700 1700 4100 1700
$Comp
L Device:Buzzer BZ1
U 1 1 615F656B
P 7500 1500
F 0 "BZ1" H 7653 1529 50  0000 L CNN
F 1 "LD-BZEL-T24-0904" H 7653 1438 50  0000 L CNN
F 2 "user_footprints:LD-BZEL-T24-0904_Loudity" V 7475 1600 50  0001 C CNN
F 3 "~" V 7475 1600 50  0001 C CNN
	1    7500 1500
	1    0    0    -1  
$EndComp
$Comp
L Transistor_BJT:BC847 Q1
U 1 1 615F9607
P 7300 2300
F 0 "Q1" H 7491 2346 50  0000 L CNN
F 1 "BC847" H 7491 2255 50  0000 L CNN
F 2 "Package_TO_SOT_SMD:SOT-23" H 7500 2225 50  0001 L CIN
F 3 "http://www.infineon.com/dgdl/Infineon-BC847SERIES_BC848SERIES_BC849SERIES_BC850SERIES-DS-v01_01-en.pdf?fileId=db3a304314dca389011541d4630a1657" H 7300 2300 50  0001 L CNN
	1    7300 2300
	1    0    0    -1  
$EndComp
$Comp
L Device:R R20
U 1 1 616154B9
P 7400 1850
F 0 "R20" H 7330 1804 50  0000 R CNN
F 1 "0R" H 7330 1895 50  0000 R CNN
F 2 "Resistor_SMD:R_0805_2012Metric" V 7330 1850 50  0001 C CNN
F 3 "~" H 7400 1850 50  0001 C CNN
	1    7400 1850
	-1   0    0    1   
$EndComp
Wire Wire Line
	7400 2100 7400 2000
Wire Wire Line
	7400 1700 7400 1600
Wire Wire Line
	7400 2500 7400 2600
$Comp
L power:GND #PWR028
U 1 1 6164F63A
P 7400 2600
F 0 "#PWR028" H 7400 2350 50  0001 C CNN
F 1 "GND" H 7405 2427 50  0000 C CNN
F 2 "" H 7400 2600 50  0001 C CNN
F 3 "" H 7400 2600 50  0001 C CNN
	1    7400 2600
	-1   0    0    -1  
$EndComp
Wire Wire Line
	7400 1400 7400 1250
$Comp
L power:+3V3 #PWR027
U 1 1 6165CC1F
P 7400 1250
F 0 "#PWR027" H 7400 1100 50  0001 C CNN
F 1 "+3V3" H 7415 1423 50  0000 C CNN
F 2 "" H 7400 1250 50  0001 C CNN
F 3 "" H 7400 1250 50  0001 C CNN
	1    7400 1250
	1    0    0    -1  
$EndComp
$Comp
L Device:R R18
U 1 1 61669A08
P 6350 2300
F 0 "R18" V 6143 2300 50  0000 C CNN
F 1 "0R" V 6234 2300 50  0000 C CNN
F 2 "Resistor_SMD:R_0805_2012Metric" V 6280 2300 50  0001 C CNN
F 3 "~" H 6350 2300 50  0001 C CNN
	1    6350 2300
	0    1    1    0   
$EndComp
Wire Wire Line
	6500 2300 6650 2300
Wire Wire Line
	6950 2300 7100 2300
$Comp
L Device:R R19
U 1 1 6167A7FE
P 6800 2300
F 0 "R19" V 6593 2300 50  0000 C CNN
F 1 "5k1" V 6684 2300 50  0000 C CNN
F 2 "Resistor_SMD:R_0805_2012Metric" V 6730 2300 50  0001 C CNN
F 3 "~" H 6800 2300 50  0001 C CNN
	1    6800 2300
	0    1    1    0   
$EndComp
Wire Wire Line
	6200 2300 5850 2300
Text Label 5850 2300 0    50   ~ 0
GPIO27
$Comp
L user_IC:TCN75A U4
U 1 1 617364EC
P 10150 1800
F 0 "U4" H 10100 2165 50  0000 C CNN
F 1 "TCN75A" H 10100 2074 50  0000 C CNN
F 2 "Package_SO:SO-8_3.9x4.9mm_P1.27mm" H 10650 2200 50  0001 C CNN
F 3 "" H 10650 2200 50  0001 C CNN
	1    10150 1800
	1    0    0    -1  
$EndComp
Wire Wire Line
	10450 1800 10550 1800
Wire Wire Line
	10550 1800 10550 1900
Wire Wire Line
	10450 2000 10550 2000
Connection ~ 10550 2000
Wire Wire Line
	10550 2000 10550 2150
Wire Wire Line
	10450 1900 10550 1900
Connection ~ 10550 1900
Wire Wire Line
	10550 1900 10550 2000
Wire Wire Line
	10450 1700 10550 1700
Wire Wire Line
	10550 1700 10550 1650
Wire Wire Line
	9750 2000 9650 2000
$Comp
L power:+3V3 #PWR037
U 1 1 6178411D
P 10550 1650
F 0 "#PWR037" H 10550 1500 50  0001 C CNN
F 1 "+3V3" H 10565 1823 50  0000 C CNN
F 2 "" H 10550 1650 50  0001 C CNN
F 3 "" H 10550 1650 50  0001 C CNN
	1    10550 1650
	1    0    0    -1  
$EndComp
$Comp
L power:GND #PWR038
U 1 1 61784C83
P 10550 2150
F 0 "#PWR038" H 10550 1900 50  0001 C CNN
F 1 "GND" H 10555 1977 50  0000 C CNN
F 2 "" H 10550 2150 50  0001 C CNN
F 3 "" H 10550 2150 50  0001 C CNN
	1    10550 2150
	-1   0    0    -1  
$EndComp
$Comp
L power:GND #PWR030
U 1 1 617862F6
P 9650 2150
F 0 "#PWR030" H 9650 1900 50  0001 C CNN
F 1 "GND" H 9655 1977 50  0000 C CNN
F 2 "" H 9650 2150 50  0001 C CNN
F 3 "" H 9650 2150 50  0001 C CNN
	1    9650 2150
	-1   0    0    -1  
$EndComp
Wire Wire Line
	9650 2000 9650 2150
Wire Wire Line
	9750 1900 9600 1900
$Comp
L Device:R R23
U 1 1 618116C1
P 9600 1450
F 0 "R23" H 9670 1496 50  0000 L CNN
F 1 "R" H 9670 1405 50  0000 L CNN
F 2 "Resistor_SMD:R_0805_2012Metric" V 9530 1450 50  0001 C CNN
F 3 "~" H 9600 1450 50  0001 C CNN
	1    9600 1450
	1    0    0    -1  
$EndComp
$Comp
L Device:R R22
U 1 1 6181191F
P 9350 1450
F 0 "R22" H 9420 1496 50  0000 L CNN
F 1 "R" H 9420 1405 50  0000 L CNN
F 2 "Resistor_SMD:R_0805_2012Metric" V 9280 1450 50  0001 C CNN
F 3 "~" H 9350 1450 50  0001 C CNN
	1    9350 1450
	1    0    0    -1  
$EndComp
$Comp
L Device:R R21
U 1 1 618123EF
P 9100 1450
F 0 "R21" H 9170 1496 50  0000 L CNN
F 1 "R" H 9170 1405 50  0000 L CNN
F 2 "Resistor_SMD:R_0805_2012Metric" V 9030 1450 50  0001 C CNN
F 3 "~" H 9100 1450 50  0001 C CNN
	1    9100 1450
	1    0    0    -1  
$EndComp
Wire Wire Line
	9600 1600 9600 1900
Wire Wire Line
	9100 1600 9100 1700
Connection ~ 9100 1700
Wire Wire Line
	9100 1300 9100 1200
Wire Wire Line
	9100 1200 9350 1200
Wire Wire Line
	9600 1200 9600 1300
Wire Wire Line
	9350 1300 9350 1200
Connection ~ 9350 1200
Wire Wire Line
	9350 1200 9600 1200
$Comp
L power:+3V3 #PWR029
U 1 1 61854EC8
P 9350 1100
F 0 "#PWR029" H 9350 950 50  0001 C CNN
F 1 "+3V3" H 9365 1273 50  0000 C CNN
F 2 "" H 9350 1100 50  0001 C CNN
F 3 "" H 9350 1100 50  0001 C CNN
	1    9350 1100
	1    0    0    -1  
$EndComp
Wire Wire Line
	9350 1100 9350 1200
$Comp
L Device:C C12
U 1 1 6187B42F
P 10300 2800
F 0 "C12" H 10415 2846 50  0000 L CNN
F 1 "100n" H 10415 2755 50  0000 L CNN
F 2 "Capacitor_SMD:C_0805_2012Metric" H 10338 2650 50  0001 C CNN
F 3 "~" H 10300 2800 50  0001 C CNN
	1    10300 2800
	1    0    0    -1  
$EndComp
$Comp
L Device:C C11
U 1 1 6187B435
P 9900 2800
F 0 "C11" H 10015 2846 50  0000 L CNN
F 1 "1u" H 10015 2755 50  0000 L CNN
F 2 "Capacitor_SMD:C_0805_2012Metric" H 9938 2650 50  0001 C CNN
F 3 "~" H 9900 2800 50  0001 C CNN
	1    9900 2800
	1    0    0    -1  
$EndComp
Wire Wire Line
	9900 2650 9900 2600
Wire Wire Line
	9900 2600 10100 2600
Wire Wire Line
	10300 2600 10300 2650
Wire Wire Line
	9900 2950 9900 3000
Wire Wire Line
	9900 3000 10100 3000
Wire Wire Line
	10300 3000 10300 2950
Wire Wire Line
	10100 3000 10100 3050
Connection ~ 10100 3000
Wire Wire Line
	10100 3000 10300 3000
Wire Wire Line
	10100 2600 10100 2550
Connection ~ 10100 2600
Wire Wire Line
	10100 2600 10300 2600
$Comp
L power:GND #PWR036
U 1 1 6187B447
P 10100 3050
F 0 "#PWR036" H 10100 2800 50  0001 C CNN
F 1 "GND" H 10105 2877 50  0000 C CNN
F 2 "" H 10100 3050 50  0001 C CNN
F 3 "" H 10100 3050 50  0001 C CNN
	1    10100 3050
	-1   0    0    -1  
$EndComp
$Comp
L power:+3V3 #PWR035
U 1 1 6187B44D
P 10100 2550
F 0 "#PWR035" H 10100 2400 50  0001 C CNN
F 1 "+3V3" H 10115 2723 50  0000 C CNN
F 2 "" H 10100 2550 50  0001 C CNN
F 3 "" H 10100 2550 50  0001 C CNN
	1    10100 2550
	1    0    0    -1  
$EndComp
Connection ~ 9600 1900
Wire Wire Line
	9100 1700 9750 1700
Wire Wire Line
	9350 1600 9350 1800
Connection ~ 9350 1800
Wire Wire Line
	9350 1800 9750 1800
Wire Wire Line
	8750 1700 9100 1700
Wire Wire Line
	8750 1800 9350 1800
Wire Wire Line
	8750 1900 9600 1900
$Comp
L Device:R R10
U 1 1 619AF5E9
P 3950 3600
F 0 "R10" V 3743 3600 50  0000 C CNN
F 1 "0R" V 3834 3600 50  0000 C CNN
F 2 "Resistor_SMD:R_0805_2012Metric" V 3880 3600 50  0001 C CNN
F 3 "~" H 3950 3600 50  0001 C CNN
	1    3950 3600
	0    1    1    0   
$EndComp
$Comp
L Device:R R11
U 1 1 619B0290
P 3950 4850
F 0 "R11" V 3743 4850 50  0000 C CNN
F 1 "0R" V 3834 4850 50  0000 C CNN
F 2 "Resistor_SMD:R_0805_2012Metric" V 3880 4850 50  0001 C CNN
F 3 "~" H 3950 4850 50  0001 C CNN
	1    3950 4850
	0    1    1    0   
$EndComp
Wire Wire Line
	3800 4850 3500 4850
Wire Wire Line
	3800 3600 3500 3600
Text Label 8750 1700 0    50   ~ 0
SDA
Text Label 8750 1800 0    50   ~ 0
SCL
Text Label 8750 1900 0    50   ~ 0
ALERT
Text Label 3700 1700 0    50   ~ 0
GPIO23
Text Label 3700 2100 0    50   ~ 0
GPIO24
Text Label 3700 2500 0    50   ~ 0
GPIO25
$Comp
L Mechanical:MountingHole_Pad H2
U 1 1 61523CD6
P 5100 750
F 0 "H2" H 5200 799 50  0000 L CNN
F 1 "MountingHole_Pad" H 5200 708 50  0000 L CNN
F 2 "MountingHole:MountingHole_2.7mm_M2.5_Pad_Via" H 5100 750 50  0001 C CNN
F 3 "~" H 5100 750 50  0001 C CNN
	1    5100 750 
	1    0    0    -1  
$EndComp
$Comp
L Mechanical:MountingHole_Pad H1
U 1 1 6152469A
P 4200 750
F 0 "H1" H 4300 799 50  0000 L CNN
F 1 "MountingHole_Pad" H 4300 708 50  0000 L CNN
F 2 "MountingHole:MountingHole_2.7mm_M2.5_Pad_Via" H 4200 750 50  0001 C CNN
F 3 "~" H 4200 750 50  0001 C CNN
	1    4200 750 
	1    0    0    -1  
$EndComp
Wire Wire Line
	4200 850  4200 950 
$Comp
L power:GND #PWR0105
U 1 1 61547B30
P 4200 950
F 0 "#PWR0105" H 4200 700 50  0001 C CNN
F 1 "GND" H 4205 777 50  0000 C CNN
F 2 "" H 4200 950 50  0001 C CNN
F 3 "" H 4200 950 50  0001 C CNN
	1    4200 950 
	-1   0    0    -1  
$EndComp
$Comp
L power:GND #PWR0106
U 1 1 615480D1
P 5100 950
F 0 "#PWR0106" H 5100 700 50  0001 C CNN
F 1 "GND" H 5105 777 50  0000 C CNN
F 2 "" H 5100 950 50  0001 C CNN
F 3 "" H 5100 950 50  0001 C CNN
	1    5100 950 
	-1   0    0    -1  
$EndComp
Wire Wire Line
	5100 850  5100 950 
Wire Wire Line
	7350 4850 7350 5000
Wire Wire Line
	7350 4250 7550 4250
Wire Wire Line
	7350 3600 7350 4250
Wire Wire Line
	7800 4150 7250 4150
Wire Wire Line
	7250 4150 7250 4850
Connection ~ 7250 4850
Wire Wire Line
	7250 4850 7350 4850
Wire Wire Line
	7550 5000 7550 4250
Connection ~ 7550 4250
Wire Wire Line
	7550 4250 7800 4250
Text Label 3500 4850 0    50   ~ 0
PWM0
Wire Wire Line
	2000 3050 1700 3050
Text Label 1700 3050 0    50   ~ 0
PWM1
Wire Wire Line
	2000 2050 1700 2050
Text Label 1700 2050 0    50   ~ 0
GPIO27
Text Label 850  1950 0    50   ~ 0
ALERT
Text Label 850  1650 0    50   ~ 0
SCL
Text Label 850  1350 0    50   ~ 0
SDA
Wire Wire Line
	1050 1950 850  1950
Wire Wire Line
	1050 1650 850  1650
Wire Wire Line
	1050 1350 850  1350
Wire Wire Line
	1500 1550 2000 1550
Wire Wire Line
	1500 1350 1500 1550
Wire Wire Line
	1350 1350 1500 1350
Wire Wire Line
	1350 1650 2000 1650
Wire Wire Line
	1350 1950 2000 1950
$Comp
L Device:R R9
U 1 1 61A001D1
P 1200 1950
F 0 "R9" V 1100 1950 50  0000 C CNN
F 1 "0R" V 1300 1950 50  0000 C CNN
F 2 "Resistor_SMD:R_0805_2012Metric" V 1130 1950 50  0001 C CNN
F 3 "~" H 1200 1950 50  0001 C CNN
	1    1200 1950
	0    1    1    0   
$EndComp
$Comp
L Device:R R8
U 1 1 619FF81D
P 1200 1650
F 0 "R8" V 1100 1650 50  0000 C CNN
F 1 "0R" V 1300 1650 50  0000 C CNN
F 2 "Resistor_SMD:R_0805_2012Metric" V 1130 1650 50  0001 C CNN
F 3 "~" H 1200 1650 50  0001 C CNN
	1    1200 1650
	0    1    1    0   
$EndComp
$Comp
L Device:R R7
U 1 1 619FE971
P 1200 1350
F 0 "R7" V 1100 1350 50  0000 C CNN
F 1 "0R" V 1300 1350 50  0000 C CNN
F 2 "Resistor_SMD:R_0805_2012Metric" V 1130 1350 50  0001 C CNN
F 3 "~" H 1200 1350 50  0001 C CNN
	1    1200 1350
	0    1    1    0   
$EndComp
Wire Wire Line
	1850 3350 1850 3650
Wire Wire Line
	1150 3650 1850 3650
Wire Wire Line
	1150 3500 1150 3650
$Comp
L power:PWR_FLAG #FLG0101
U 1 1 616756C2
P 1150 3500
F 0 "#FLG0101" H 1150 3575 50  0001 C CNN
F 1 "PWR_FLAG" H 1150 3673 50  0000 C CNN
F 2 "" H 1150 3500 50  0001 C CNN
F 3 "~" H 1150 3500 50  0001 C CNN
	1    1150 3500
	1    0    0    -1  
$EndComp
Wire Wire Line
	3150 1450 3150 1350
Wire Wire Line
	2800 1450 3150 1450
$Comp
L power:PWR_FLAG #FLG02
U 1 1 615B498B
P 3150 1350
F 0 "#FLG02" H 3150 1425 50  0001 C CNN
F 1 "PWR_FLAG" H 3150 1523 50  0000 C CNN
F 2 "" H 3150 1350 50  0001 C CNN
F 3 "~" H 3150 1350 50  0001 C CNN
	1    3150 1350
	1    0    0    -1  
$EndComp
Wire Wire Line
	1850 3350 1700 3350
Connection ~ 1850 3350
$Comp
L power:+5V #PWR09
U 1 1 6156B968
P 2800 1350
F 0 "#PWR09" H 2800 1200 50  0001 C CNN
F 1 "+5V" H 2815 1523 50  0000 C CNN
F 2 "" H 2800 1350 50  0001 C CNN
F 3 "" H 2800 1350 50  0001 C CNN
	1    2800 1350
	1    0    0    -1  
$EndComp
Text Label 1700 2250 0    50   ~ 0
3V3
Text Label 1700 1450 0    50   ~ 0
3V3
Wire Wire Line
	2000 1450 1700 1450
Text Label 1700 3250 0    50   ~ 0
GPIO26
Text Label 1700 3150 0    50   ~ 0
GPIO19
Text Label 1700 2950 0    50   ~ 0
GPIO06
Text Label 1700 2850 0    50   ~ 0
GPIO05
Text Label 1700 2750 0    50   ~ 0
GPIO00
Text Label 1700 2550 0    50   ~ 0
GPIO11
Text Label 1700 2450 0    50   ~ 0
GPIO09
Text Label 1700 2350 0    50   ~ 0
GPIO10
Text Label 1700 2150 0    50   ~ 0
GPIO22
Text Label 1700 1950 0    50   ~ 0
GPIO17
Text Label 1700 1750 0    50   ~ 0
GPIO04
Text Label 1700 1650 0    50   ~ 0
GPIO03
$Comp
L power:GND #PWR01
U 1 1 6155B146
P 1700 1850
F 0 "#PWR01" H 1700 1600 50  0001 C CNN
F 1 "GND" V 1705 1722 50  0000 R CNN
F 2 "" H 1700 1850 50  0001 C CNN
F 3 "" H 1700 1850 50  0001 C CNN
	1    1700 1850
	0    1    1    0   
$EndComp
$Comp
L power:GND #PWR02
U 1 1 61559EB6
P 1700 2650
F 0 "#PWR02" H 1700 2400 50  0001 C CNN
F 1 "GND" V 1705 2522 50  0000 R CNN
F 2 "" H 1700 2650 50  0001 C CNN
F 3 "" H 1700 2650 50  0001 C CNN
	1    1700 2650
	0    1    1    0   
$EndComp
$Comp
L power:GND #PWR03
U 1 1 61559470
P 1700 3350
F 0 "#PWR03" H 1700 3100 50  0001 C CNN
F 1 "GND" V 1705 3222 50  0000 R CNN
F 2 "" H 1700 3350 50  0001 C CNN
F 3 "" H 1700 3350 50  0001 C CNN
	1    1700 3350
	0    1    1    0   
$EndComp
Wire Wire Line
	2000 3350 1850 3350
Wire Wire Line
	2000 3250 1700 3250
Wire Wire Line
	2000 3150 1700 3150
Wire Wire Line
	2000 2950 1700 2950
Wire Wire Line
	2000 2850 1700 2850
Wire Wire Line
	2000 2750 1700 2750
Wire Wire Line
	1700 2650 2000 2650
Wire Wire Line
	2000 2550 1700 2550
Wire Wire Line
	2000 2450 1700 2450
Wire Wire Line
	2000 2350 1700 2350
Wire Wire Line
	2000 2250 1700 2250
Wire Wire Line
	2000 2150 1700 2150
Wire Wire Line
	2000 1850 1700 1850
Wire Wire Line
	2000 1750 1700 1750
Text Label 1700 1550 0    50   ~ 0
GPIO02
Text Label 2800 3350 2    50   ~ 0
GPIO21
Text Label 2800 3250 2    50   ~ 0
GPIO20
Text Label 2800 3150 2    50   ~ 0
GPIO16
Text Label 2800 1950 2    50   ~ 0
GPIO18
Text Label 2800 2750 2    50   ~ 0
GPIO01
Text Label 2800 2650 2    50   ~ 0
GPIO07
Text Label 2800 2550 2    50   ~ 0
GPIO08
Text Label 2800 2450 2    50   ~ 0
GPIO25
Text Label 2800 2250 2    50   ~ 0
GPIO24
Text Label 2800 2150 2    50   ~ 0
GPIO23
Text Label 2800 2950 2    50   ~ 0
PWM0
Text Label 2800 1850 2    50   ~ 0
GPIO15
Text Label 2800 1750 2    50   ~ 0
GPIO14
Wire Wire Line
	2500 3350 2800 3350
Wire Wire Line
	2500 3250 2800 3250
Wire Wire Line
	2500 3150 2800 3150
Wire Wire Line
	2500 2950 2800 2950
Wire Wire Line
	2500 2750 2800 2750
Wire Wire Line
	2500 2650 2800 2650
Wire Wire Line
	2500 2550 2800 2550
Wire Wire Line
	2500 2450 2800 2450
Wire Wire Line
	2500 2250 2800 2250
Wire Wire Line
	2500 2150 2800 2150
$Comp
L power:GND #PWR014
U 1 1 614D6B59
P 2800 3050
F 0 "#PWR014" H 2800 2800 50  0001 C CNN
F 1 "GND" V 2805 2922 50  0000 R CNN
F 2 "" H 2800 3050 50  0001 C CNN
F 3 "" H 2800 3050 50  0001 C CNN
	1    2800 3050
	0    -1   -1   0   
$EndComp
Wire Wire Line
	2500 3050 2800 3050
$Comp
L power:GND #PWR013
U 1 1 614D414D
P 2800 2850
F 0 "#PWR013" H 2800 2600 50  0001 C CNN
F 1 "GND" V 2805 2722 50  0000 R CNN
F 2 "" H 2800 2850 50  0001 C CNN
F 3 "" H 2800 2850 50  0001 C CNN
	1    2800 2850
	0    -1   -1   0   
$EndComp
Wire Wire Line
	2500 2850 2800 2850
$Comp
L power:GND #PWR012
U 1 1 614D073D
P 2800 2350
F 0 "#PWR012" H 2800 2100 50  0001 C CNN
F 1 "GND" V 2805 2222 50  0000 R CNN
F 2 "" H 2800 2350 50  0001 C CNN
F 3 "" H 2800 2350 50  0001 C CNN
	1    2800 2350
	0    -1   -1   0   
$EndComp
Wire Wire Line
	2500 2350 2800 2350
$Comp
L power:GND #PWR011
U 1 1 614CD0D7
P 2800 2050
F 0 "#PWR011" H 2800 1800 50  0001 C CNN
F 1 "GND" V 2805 1922 50  0000 R CNN
F 2 "" H 2800 2050 50  0001 C CNN
F 3 "" H 2800 2050 50  0001 C CNN
	1    2800 2050
	0    -1   -1   0   
$EndComp
Wire Wire Line
	2500 2050 2800 2050
Wire Wire Line
	2500 1950 2800 1950
Wire Wire Line
	2500 1850 2800 1850
Wire Wire Line
	2500 1750 2800 1750
$Comp
L power:GND #PWR010
U 1 1 614BCE51
P 2800 1650
F 0 "#PWR010" H 2800 1400 50  0001 C CNN
F 1 "GND" V 2805 1522 50  0000 R CNN
F 2 "" H 2800 1650 50  0001 C CNN
F 3 "" H 2800 1650 50  0001 C CNN
	1    2800 1650
	0    -1   -1   0   
$EndComp
Wire Wire Line
	2500 1650 2800 1650
Connection ~ 2800 1450
Wire Wire Line
	2800 1550 2800 1450
Wire Wire Line
	2500 1550 2800 1550
Wire Wire Line
	2800 1450 2800 1350
Wire Wire Line
	2500 1450 2800 1450
$Comp
L Connector_Generic:Conn_02x20_Odd_Even J1
U 1 1 612E9D7F
P 2200 2350
F 0 "J1" H 2250 3467 50  0000 C CNN
F 1 "Conn_02x20_Odd_Even" H 2250 3376 50  0000 C CNN
F 2 "Connector_PinSocket_2.54mm:PinSocket_2x20_P2.54mm_Vertical_SMD" H 2200 2350 50  0001 C CNN
F 3 "~" H 2200 2350 50  0001 C CNN
	1    2200 2350
	1    0    0    -1  
$EndComp
Wire Wire Line
	2000 5800 1700 5800
Text Label 1700 5800 0    50   ~ 0
PWM1
Wire Wire Line
	2000 4800 1700 4800
Text Label 1700 4800 0    50   ~ 0
GPIO27
Wire Wire Line
	1850 6100 1700 6100
Wire Wire Line
	1850 6200 1850 6100
$Comp
L power:GNDPWR #PWR08
U 1 1 615B4985
P 1850 6200
F 0 "#PWR08" H 1850 6000 50  0001 C CNN
F 1 "GNDPWR" H 1854 6046 50  0000 C CNN
F 2 "" H 1850 6150 50  0001 C CNN
F 3 "" H 1850 6150 50  0001 C CNN
	1    1850 6200
	1    0    0    -1  
$EndComp
$Comp
L power:+5V #PWR015
U 1 1 615B497F
P 2800 4100
F 0 "#PWR015" H 2800 3950 50  0001 C CNN
F 1 "+5V" H 2815 4273 50  0000 C CNN
F 2 "" H 2800 4100 50  0001 C CNN
F 3 "" H 2800 4100 50  0001 C CNN
	1    2800 4100
	1    0    0    -1  
$EndComp
Text Label 1700 5000 0    50   ~ 0
3V3
Text Label 1700 4200 0    50   ~ 0
3V3
Wire Wire Line
	2000 4200 1700 4200
Text Label 1700 6000 0    50   ~ 0
GPIO26
Text Label 1700 5900 0    50   ~ 0
GPIO19
Text Label 1700 5700 0    50   ~ 0
GPIO06
Text Label 1700 5600 0    50   ~ 0
GPIO05
Text Label 1700 5500 0    50   ~ 0
GPIO00
Text Label 1700 5300 0    50   ~ 0
GPIO11
Text Label 1700 5200 0    50   ~ 0
GPIO09
Text Label 1700 5100 0    50   ~ 0
GPIO10
Text Label 1700 4900 0    50   ~ 0
GPIO22
Text Label 1700 4700 0    50   ~ 0
GPIO17
Text Label 1700 4500 0    50   ~ 0
GPIO04
Text Label 1700 4400 0    50   ~ 0
GPIO03
$Comp
L power:GND #PWR04
U 1 1 615B4968
P 1700 4600
F 0 "#PWR04" H 1700 4350 50  0001 C CNN
F 1 "GND" V 1705 4472 50  0000 R CNN
F 2 "" H 1700 4600 50  0001 C CNN
F 3 "" H 1700 4600 50  0001 C CNN
	1    1700 4600
	0    1    1    0   
$EndComp
$Comp
L power:GND #PWR05
U 1 1 615B4962
P 1700 5400
F 0 "#PWR05" H 1700 5150 50  0001 C CNN
F 1 "GND" V 1705 5272 50  0000 R CNN
F 2 "" H 1700 5400 50  0001 C CNN
F 3 "" H 1700 5400 50  0001 C CNN
	1    1700 5400
	0    1    1    0   
$EndComp
$Comp
L power:GND #PWR06
U 1 1 615B495C
P 1700 6100
F 0 "#PWR06" H 1700 5850 50  0001 C CNN
F 1 "GND" V 1705 5972 50  0000 R CNN
F 2 "" H 1700 6100 50  0001 C CNN
F 3 "" H 1700 6100 50  0001 C CNN
	1    1700 6100
	0    1    1    0   
$EndComp
Connection ~ 1850 6100
Wire Wire Line
	2000 6100 1850 6100
Wire Wire Line
	2000 6000 1700 6000
Wire Wire Line
	2000 5900 1700 5900
Wire Wire Line
	2000 5700 1700 5700
Wire Wire Line
	2000 5600 1700 5600
Wire Wire Line
	2000 5500 1700 5500
Wire Wire Line
	1700 5400 2000 5400
Wire Wire Line
	2000 5300 1700 5300
Wire Wire Line
	2000 5200 1700 5200
Wire Wire Line
	2000 5100 1700 5100
Wire Wire Line
	2000 5000 1700 5000
Wire Wire Line
	2000 4900 1700 4900
Wire Wire Line
	2000 4700 1700 4700
Wire Wire Line
	2000 4600 1700 4600
Wire Wire Line
	2000 4500 1700 4500
Wire Wire Line
	2000 4400 1700 4400
Text Label 1700 4300 0    50   ~ 0
GPIO02
Wire Wire Line
	2000 4300 1700 4300
Text Label 2800 6100 2    50   ~ 0
GPIO21
Text Label 2800 6000 2    50   ~ 0
GPIO20
Text Label 2800 5900 2    50   ~ 0
GPIO16
Text Label 2800 4700 2    50   ~ 0
GPIO18
Text Label 2800 5500 2    50   ~ 0
GPIO01
Text Label 2800 5400 2    50   ~ 0
GPIO07
Text Label 2800 5300 2    50   ~ 0
GPIO08
Text Label 2800 5200 2    50   ~ 0
GPIO25
Text Label 2800 5000 2    50   ~ 0
GPIO24
Text Label 2800 4900 2    50   ~ 0
GPIO23
Text Label 2800 5700 2    50   ~ 0
PWM0
Text Label 2800 4600 2    50   ~ 0
GPIO15
Text Label 2800 4500 2    50   ~ 0
GPIO14
Wire Wire Line
	2500 6100 2800 6100
Wire Wire Line
	2500 6000 2800 6000
Wire Wire Line
	2500 5900 2800 5900
Wire Wire Line
	2500 5700 2800 5700
Wire Wire Line
	2500 5500 2800 5500
Wire Wire Line
	2500 5400 2800 5400
Wire Wire Line
	2500 5300 2800 5300
Wire Wire Line
	2500 5200 2800 5200
Wire Wire Line
	2500 5000 2800 5000
Wire Wire Line
	2500 4900 2800 4900
$Comp
L power:GND #PWR020
U 1 1 615B492B
P 2800 5800
F 0 "#PWR020" H 2800 5550 50  0001 C CNN
F 1 "GND" V 2805 5672 50  0000 R CNN
F 2 "" H 2800 5800 50  0001 C CNN
F 3 "" H 2800 5800 50  0001 C CNN
	1    2800 5800
	0    -1   -1   0   
$EndComp
Wire Wire Line
	2500 5800 2800 5800
$Comp
L power:GND #PWR019
U 1 1 615B4924
P 2800 5600
F 0 "#PWR019" H 2800 5350 50  0001 C CNN
F 1 "GND" V 2805 5472 50  0000 R CNN
F 2 "" H 2800 5600 50  0001 C CNN
F 3 "" H 2800 5600 50  0001 C CNN
	1    2800 5600
	0    -1   -1   0   
$EndComp
Wire Wire Line
	2500 5600 2800 5600
$Comp
L power:GND #PWR018
U 1 1 615B491D
P 2800 5100
F 0 "#PWR018" H 2800 4850 50  0001 C CNN
F 1 "GND" V 2805 4972 50  0000 R CNN
F 2 "" H 2800 5100 50  0001 C CNN
F 3 "" H 2800 5100 50  0001 C CNN
	1    2800 5100
	0    -1   -1   0   
$EndComp
Wire Wire Line
	2500 5100 2800 5100
$Comp
L power:GND #PWR017
U 1 1 615B4916
P 2800 4800
F 0 "#PWR017" H 2800 4550 50  0001 C CNN
F 1 "GND" V 2805 4672 50  0000 R CNN
F 2 "" H 2800 4800 50  0001 C CNN
F 3 "" H 2800 4800 50  0001 C CNN
	1    2800 4800
	0    -1   -1   0   
$EndComp
Wire Wire Line
	2500 4800 2800 4800
Wire Wire Line
	2500 4700 2800 4700
Wire Wire Line
	2500 4600 2800 4600
Wire Wire Line
	2500 4500 2800 4500
$Comp
L power:GND #PWR016
U 1 1 615B490C
P 2800 4400
F 0 "#PWR016" H 2800 4150 50  0001 C CNN
F 1 "GND" V 2805 4272 50  0000 R CNN
F 2 "" H 2800 4400 50  0001 C CNN
F 3 "" H 2800 4400 50  0001 C CNN
	1    2800 4400
	0    -1   -1   0   
$EndComp
Wire Wire Line
	2500 4400 2800 4400
Wire Wire Line
	2500 4300 2800 4300
Wire Wire Line
	2800 4300 2800 4200
Wire Wire Line
	2800 4200 2800 4100
Connection ~ 2800 4200
Wire Wire Line
	2500 4200 2800 4200
$Comp
L Connector_Generic:Conn_02x20_Odd_Even J2
U 1 1 615B4900
P 2300 5100
F 0 "J2" H 2350 6217 50  0000 C CNN
F 1 "Conn_02x20_Odd_Even" H 2350 6126 50  0000 C CNN
F 2 "Connector_PinSocket_2.54mm:PinSocket_2x20_P2.54mm_Vertical_SMD" H 2300 5100 50  0001 C CNN
F 3 "~" H 2300 5100 50  0001 C CNN
	1    2300 5100
	-1   0    0    -1  
$EndComp
$EndSCHEMATC
